{
    "form_0": {
        "rank": 2, 
        "num_coefficients": 0, 
        "has_cell_integrals": 1, 
        "has_exterior_facet_integrals": 0, 
        "has_interior_facet_integrals": 0, 
        "has_vertex_integrals": 0, 
        "max_cell_subdomain_id": 0, 
        "max_exterior_facet_subdomain_id": 0, 
        "max_interior_facet_subdomain_id": 0, 
        "max_vertex_subdomain_id": 0, 
        "finite_element_0": {
            "cell_shape": 1, 
            "space_dimension": 10, 
            "value_rank": 0, 
            "evaluate_basis:_0": [6.0722982439051840e+00], 
            "evaluate_basis:_1": [2.1002899274089625e+01], 
            "evaluate_basis:_2": [-1.0078178334052765e+02], 
            "evaluate_basis:_3": [-1.1575757274913173e+02], 
            "evaluate_basis:_4": [1.9358967788149991e+02], 
            "evaluate_basis:_5": [-5.6526177183805430e+01], 
            "evaluate_basis:_6": [1.4059601114040527e+02], 
            "evaluate_basis:_7": [4.5850460530414274e+01], 
            "evaluate_basis:_8": [6.8192139288041844e+01], 
            "evaluate_basis:_9": [-2.0123796306119272e+02], 
            "evaluate_basis_all": [6.0722982439051840e+00, 2.1002899274089625e+01, -1.0078178334052765e+02, -1.1575757274913173e+02, 1.9358967788149991e+02, -5.6526177183805430e+01, 1.4059601114040527e+02, 4.5850460530414274e+01, 6.8192139288041844e+01, -2.0123796306119272e+02, 0.0, 0.0, 0.0, 0.0, 0.0, 0.0, 0.0, 0.0, 0.0, 0.0, 0.0, 0.0, 0.0, 0.0, 0.0, 0.0, 0.0, 0.0, 0.0, 0.0, 0.0, 0.0, 0.0, 0.0, 0.0, 0.0, 0.0, 0.0, 0.0, 0.0], 
            "evaluate_basis_derivatives_0_0": [6.0722982439051840e+00], 
            "evaluate_basis_derivatives_0_1": [1.4549523648357052e+00, -3.8738173942949338e+01], 
            "evaluate_basis_derivatives_0_2": [2.2517983113039008e-01, -5.9952116341582098e+00, -5.9952138737826601e+00, 1.5962251471041640e+02], 
            "evaluate_basis_derivatives_1_0": [2.1002899274089625e+01], 
            "evaluate_basis_derivatives_1_1": [-9.0339140358869912e+01, 1.7168523258109502e+01], 
            "evaluate_basis_derivatives_1_2": [2.5557013907047858e+02, -4.8569889126034191e+01, -4.8569891733682937e+01, 9.2304792944223664e+00], 
            "evaluate_basis_derivatives_2_0": [-1.0078178334052765e+02], 
            "evaluate_basis_derivatives_2_1": [2.4556399463255994e+02, 1.9714292526839318e+02], 
            "evaluate_basis_derivatives_2_2": [-3.9702473739713201e+02, -3.1873816945966934e+02, -3.1873816945966934e+02, -2.5588838956621339e+02], 
            "evaluate_basis_derivatives_3_0": [-1.1575757274913173e+02], 
            "evaluate_basis_derivatives_3_1": [4.0223832397962019e+02, 2.8375066054096152e+01], 
            "evaluate_basis_derivatives_3_2": [-9.1822456132912828e+02, -9.4127199298078196e+01, -9.4127195042645369e+01, 6.8940525528829042e+01], 
            "evaluate_basis_derivatives_4_0": [1.9358967788149991e+02], 
            "evaluate_basis_derivatives_4_1": [-5.5816950723518983e+02, -2.2388011941666247e+02], 
            "evaluate_basis_derivatives_4_2": [1.0595198853725130e+03, 4.6567523868007549e+02, 4.6567523997067929e+02, 6.4827470645568326e+01], 
            "evaluate_basis_derivatives_5_0": [-5.6526177183805430e+01], 
            "evaluate_basis_derivatives_5_1": [4.4016566988246041e+01, 2.4203056336037747e+02], 
            "evaluate_basis_derivatives_5_2": [1.3251460854985680e+01, -1.6431469979116764e+02, -1.6431469336936505e+02, -6.4410514324719838e+02], 
            "evaluate_basis_derivatives_6_0": [1.4059601114040527e+02], 
            "evaluate_basis_derivatives_6_1": [-2.3318184069599377e+02, -4.1143011765485113e+02], 
            "evaluate_basis_derivatives_6_2": [1.7828690720619738e+02, 5.2805697508029755e+02, 5.2805697378969376e+02, 7.3295754603529440e+02], 
            "evaluate_basis_derivatives_7_0": [4.5850460530414274e+01], 
            "evaluate_basis_derivatives_7_1": [-4.7376048978556113e+01, -1.5258395589866456e+02], 
            "evaluate_basis_derivatives_7_2": [-1.3861092576563408e+01, 1.8054511524733340e+02, 1.8054511624316763e+02, 2.1197021864520147e+02], 
            "evaluate_basis_derivatives_8_0": [6.8192139288041844e+01], 
            "evaluate_basis_derivatives_8_1": [-1.7079926522726709e+02, -7.2358951520606468e+01], 
            "evaluate_basis_derivatives_8_2": [2.0182311905165537e+02, 2.3027588250542163e+02, 2.3027588635686067e+02, -9.4814957317982916e+01], 
            "evaluate_basis_derivatives_9_0": [-2.0123796306119272e+02], 
            "evaluate_basis_derivatives_9_1": [4.0659198793036455e+02, 4.1427425927847219e+02], 
            "evaluate_basis_derivatives_9_2": [-3.7956633644984214e+02, -7.7280807139902345e+02, -7.7280808207625887e+02, -2.5274028816657929e+02], 
            "evaluate_basis_derivatives_all_0": [6.0722982439051840e+00, 2.1002899274089625e+01, -1.0078178334052765e+02, -1.1575757274913173e+02, 1.9358967788149991e+02, -5.6526177183805430e+01, 1.4059601114040527e+02, 4.5850460530414274e+01, 6.8192139288041844e+01, -2.0123796306119272e+02], 
            "evaluate_basis_derivatives_all_1": [1.4549523648357052e+00, -3.8738173942949338e+01, -9.0339140358869912e+01, 1.7168523258109502e+01, 2.4556399463255994e+02, 1.9714292526839318e+02, 4.0223832397962019e+02, 2.8375066054096152e+01, -5.5816950723518983e+02, -2.2388011941666247e+02, 4.4016566988246041e+01, 2.4203056336037747e+02, -2.3318184069599377e+02, -4.1143011765485113e+02, -4.7376048978556113e+01, -1.5258395589866456e+02, -1.7079926522726709e+02, -7.2358951520606468e+01, 4.0659198793036455e+02, 4.1427425927847219e+02], 
            "evaluate_basis_derivatives_all_2": [2.2517983113039008e-01, -5.9952116341582098e+00, -5.9952138737826601e+00, 1.5962251471041640e+02, 2.5557013907047858e+02, -4.8569889126034191e+01, -4.8569891733682937e+01, 9.2304792944223664e+00, -3.9702473739713201e+02, -3.1873816945966934e+02, -3.1873816945966934e+02, -2.5588838956621339e+02, -9.1822456132912828e+02, -9.4127199298078196e+01, -9.4127195042645369e+01, 6.8940525528829042e+01, 1.0595198853725130e+03, 4.6567523868007549e+02, 4.6567523997067929e+02, 6.4827470645568326e+01, 1.3251460854985680e+01, -1.6431469979116764e+02, -1.6431469336936505e+02, -6.4410514324719838e+02, 1.7828690720619738e+02, 5.2805697508029755e+02, 5.2805697378969376e+02, 7.3295754603529440e+02, -1.3861092576563408e+01, 1.8054511524733340e+02, 1.8054511624316763e+02, 2.1197021864520147e+02, 2.0182311905165537e+02, 2.3027588250542163e+02, 2.3027588635686067e+02, -9.4814957317982916e+01, -3.7956633644984214e+02, -7.7280807139902345e+02, -7.7280808207625887e+02, -2.5274028816657929e+02], 
            "evaluate_dof_0": 3.0792300000000006e-01, 
            "evaluate_dof_1": 4.3028700000000003e-01, 
            "evaluate_dof_2": 7.7282099999999998e-01, 
            "evaluate_dof_3": 5.4295033219912670e-01, 
            "evaluate_dof_4": 6.5712833448268670e-01, 
            "evaluate_dof_5": 4.5463833182492674e-01, 
            "evaluate_dof_6": 6.0960433492424670e-01, 
            "evaluate_dof_7": 3.8108699943023999e-01, 
            "evaluate_dof_8": 4.2187500024600011e-01, 
            "evaluate_dof_9": 5.1498232303368663e-01, 
            "evaluate_dofs": [3.0792300000000006e-01, 4.3028700000000003e-01, 7.7282099999999998e-01, 5.4295033219912670e-01, 6.5712833448268670e-01, 4.5463833182492674e-01, 6.0960433492424670e-01, 3.8108699943023999e-01, 4.2187500024600011e-01, 5.1498232303368663e-01], 
            "interpolate_vertex_values": [3.0792300000000006e-01, 4.3028700000000003e-01, 7.7282099999999998e-01], 
            "tabulate_dof_coordinates": [9.0300000000000002e-01, 3.4100000000000003e-01, 5.6100000000000005e-01, 7.6700000000000002e-01, 9.8699999999999999e-01, 7.8300000000000003e-01, 7.0299999857999995e-01, 7.7233333328000009e-01, 8.4500000141999998e-01, 7.7766666672000007e-01, 9.3099999972000003e-01, 4.8833333186000005e-01, 9.5900000027999999e-01, 6.3566666814000006e-01, 7.8900000114000002e-01, 4.8299999857999998e-01, 6.7499999886000006e-01, 6.2500000142000012e-01, 8.1699999182999994e-01, 6.3033332703000000e-01], 
            "num_sub_elements": 0, 
        },
        "finite_element_1": {
            "cell_shape": 1, 
            "space_dimension": 10, 
            "value_rank": 0, 
            "evaluate_basis:_0": [6.0722982439051840e+00], 
            "evaluate_basis:_1": [2.1002899274089625e+01], 
            "evaluate_basis:_2": [-1.0078178334052765e+02], 
            "evaluate_basis:_3": [-1.1575757274913173e+02], 
            "evaluate_basis:_4": [1.9358967788149991e+02], 
            "evaluate_basis:_5": [-5.6526177183805430e+01], 
            "evaluate_basis:_6": [1.4059601114040527e+02], 
            "evaluate_basis:_7": [4.5850460530414274e+01], 
            "evaluate_basis:_8": [6.8192139288041844e+01], 
            "evaluate_basis:_9": [-2.0123796306119272e+02], 
            "evaluate_basis_all": [6.0722982439051840e+00, 2.1002899274089625e+01, -1.0078178334052765e+02, -1.1575757274913173e+02, 1.9358967788149991e+02, -5.6526177183805430e+01, 1.4059601114040527e+02, 4.5850460530414274e+01, 6.8192139288041844e+01, -2.0123796306119272e+02, 0.0, 0.0, 0.0, 0.0, 0.0, 0.0, 0.0, 0.0, 0.0, 0.0, 0.0, 0.0, 0.0, 0.0, 0.0, 0.0, 0.0, 0.0, 0.0, 0.0, 0.0, 0.0, 0.0, 0.0, 0.0, 0.0, 0.0, 0.0, 0.0, 0.0], 
            "evaluate_basis_derivatives_0_0": [6.0722982439051840e+00], 
            "evaluate_basis_derivatives_0_1": [1.4549523648357052e+00, -3.8738173942949338e+01], 
            "evaluate_basis_derivatives_0_2": [2.2517983113039008e-01, -5.9952116341582098e+00, -5.9952138737826601e+00, 1.5962251471041640e+02], 
            "evaluate_basis_derivatives_1_0": [2.1002899274089625e+01], 
            "evaluate_basis_derivatives_1_1": [-9.0339140358869912e+01, 1.7168523258109502e+01], 
            "evaluate_basis_derivatives_1_2": [2.5557013907047858e+02, -4.8569889126034191e+01, -4.8569891733682937e+01, 9.2304792944223664e+00], 
            "evaluate_basis_derivatives_2_0": [-1.0078178334052765e+02], 
            "evaluate_basis_derivatives_2_1": [2.4556399463255994e+02, 1.9714292526839318e+02], 
            "evaluate_basis_derivatives_2_2": [-3.9702473739713201e+02, -3.1873816945966934e+02, -3.1873816945966934e+02, -2.5588838956621339e+02], 
            "evaluate_basis_derivatives_3_0": [-1.1575757274913173e+02], 
            "evaluate_basis_derivatives_3_1": [4.0223832397962019e+02, 2.8375066054096152e+01], 
            "evaluate_basis_derivatives_3_2": [-9.1822456132912828e+02, -9.4127199298078196e+01, -9.4127195042645369e+01, 6.8940525528829042e+01], 
            "evaluate_basis_derivatives_4_0": [1.9358967788149991e+02], 
            "evaluate_basis_derivatives_4_1": [-5.5816950723518983e+02, -2.2388011941666247e+02], 
            "evaluate_basis_derivatives_4_2": [1.0595198853725130e+03, 4.6567523868007549e+02, 4.6567523997067929e+02, 6.4827470645568326e+01], 
            "evaluate_basis_derivatives_5_0": [-5.6526177183805430e+01], 
            "evaluate_basis_derivatives_5_1": [4.4016566988246041e+01, 2.4203056336037747e+02], 
            "evaluate_basis_derivatives_5_2": [1.3251460854985680e+01, -1.6431469979116764e+02, -1.6431469336936505e+02, -6.4410514324719838e+02], 
            "evaluate_basis_derivatives_6_0": [1.4059601114040527e+02], 
            "evaluate_basis_derivatives_6_1": [-2.3318184069599377e+02, -4.1143011765485113e+02], 
            "evaluate_basis_derivatives_6_2": [1.7828690720619738e+02, 5.2805697508029755e+02, 5.2805697378969376e+02, 7.3295754603529440e+02], 
            "evaluate_basis_derivatives_7_0": [4.5850460530414274e+01], 
            "evaluate_basis_derivatives_7_1": [-4.7376048978556113e+01, -1.5258395589866456e+02], 
            "evaluate_basis_derivatives_7_2": [-1.3861092576563408e+01, 1.8054511524733340e+02, 1.8054511624316763e+02, 2.1197021864520147e+02], 
            "evaluate_basis_derivatives_8_0": [6.8192139288041844e+01], 
            "evaluate_basis_derivatives_8_1": [-1.7079926522726709e+02, -7.2358951520606468e+01], 
            "evaluate_basis_derivatives_8_2": [2.0182311905165537e+02, 2.3027588250542163e+02, 2.3027588635686067e+02, -9.4814957317982916e+01], 
            "evaluate_basis_derivatives_9_0": [-2.0123796306119272e+02], 
            "evaluate_basis_derivatives_9_1": [4.0659198793036455e+02, 4.1427425927847219e+02], 
            "evaluate_basis_derivatives_9_2": [-3.7956633644984214e+02, -7.7280807139902345e+02, -7.7280808207625887e+02, -2.5274028816657929e+02], 
            "evaluate_basis_derivatives_all_0": [6.0722982439051840e+00, 2.1002899274089625e+01, -1.0078178334052765e+02, -1.1575757274913173e+02, 1.9358967788149991e+02, -5.6526177183805430e+01, 1.4059601114040527e+02, 4.5850460530414274e+01, 6.8192139288041844e+01, -2.0123796306119272e+02], 
            "evaluate_basis_derivatives_all_1": [1.4549523648357052e+00, -3.8738173942949338e+01, -9.0339140358869912e+01, 1.7168523258109502e+01, 2.4556399463255994e+02, 1.9714292526839318e+02, 4.0223832397962019e+02, 2.8375066054096152e+01, -5.5816950723518983e+02, -2.2388011941666247e+02, 4.4016566988246041e+01, 2.4203056336037747e+02, -2.3318184069599377e+02, -4.1143011765485113e+02, -4.7376048978556113e+01, -1.5258395589866456e+02, -1.7079926522726709e+02, -7.2358951520606468e+01, 4.0659198793036455e+02, 4.1427425927847219e+02], 
            "evaluate_basis_derivatives_all_2": [2.2517983113039008e-01, -5.9952116341582098e+00, -5.9952138737826601e+00, 1.5962251471041640e+02, 2.5557013907047858e+02, -4.8569889126034191e+01, -4.8569891733682937e+01, 9.2304792944223664e+00, -3.9702473739713201e+02, -3.1873816945966934e+02, -3.1873816945966934e+02, -2.5588838956621339e+02, -9.1822456132912828e+02, -9.4127199298078196e+01, -9.4127195042645369e+01, 6.8940525528829042e+01, 1.0595198853725130e+03, 4.6567523868007549e+02, 4.6567523997067929e+02, 6.4827470645568326e+01, 1.3251460854985680e+01, -1.6431469979116764e+02, -1.6431469336936505e+02, -6.4410514324719838e+02, 1.7828690720619738e+02, 5.2805697508029755e+02, 5.2805697378969376e+02, 7.3295754603529440e+02, -1.3861092576563408e+01, 1.8054511524733340e+02, 1.8054511624316763e+02, 2.1197021864520147e+02, 2.0182311905165537e+02, 2.3027588250542163e+02, 2.3027588635686067e+02, -9.4814957317982916e+01, -3.7956633644984214e+02, -7.7280807139902345e+02, -7.7280808207625887e+02, -2.5274028816657929e+02], 
            "evaluate_dof_0": 3.0792300000000006e-01, 
            "evaluate_dof_1": 4.3028700000000003e-01, 
            "evaluate_dof_2": 7.7282099999999998e-01, 
            "evaluate_dof_3": 5.4295033219912670e-01, 
            "evaluate_dof_4": 6.5712833448268670e-01, 
            "evaluate_dof_5": 4.5463833182492674e-01, 
            "evaluate_dof_6": 6.0960433492424670e-01, 
            "evaluate_dof_7": 3.8108699943023999e-01, 
            "evaluate_dof_8": 4.2187500024600011e-01, 
            "evaluate_dof_9": 5.1498232303368663e-01, 
            "evaluate_dofs": [3.0792300000000006e-01, 4.3028700000000003e-01, 7.7282099999999998e-01, 5.4295033219912670e-01, 6.5712833448268670e-01, 4.5463833182492674e-01, 6.0960433492424670e-01, 3.8108699943023999e-01, 4.2187500024600011e-01, 5.1498232303368663e-01], 
            "interpolate_vertex_values": [3.0792300000000006e-01, 4.3028700000000003e-01, 7.7282099999999998e-01], 
            "tabulate_dof_coordinates": [9.0300000000000002e-01, 3.4100000000000003e-01, 5.6100000000000005e-01, 7.6700000000000002e-01, 9.8699999999999999e-01, 7.8300000000000003e-01, 7.0299999857999995e-01, 7.7233333328000009e-01, 8.4500000141999998e-01, 7.7766666672000007e-01, 9.3099999972000003e-01, 4.8833333186000005e-01, 9.5900000027999999e-01, 6.3566666814000006e-01, 7.8900000114000002e-01, 4.8299999857999998e-01, 6.7499999886000006e-01, 6.2500000142000012e-01, 8.1699999182999994e-01, 6.3033332703000000e-01], 
            "num_sub_elements": 0, 
        },
        "dofmap_0": {
            "needs_mesh_entities_0": 1, 
            "needs_mesh_entities_1": 1, 
            "needs_mesh_entities_2": 1, 
            "global_dimension": 40008, 
            "num_element_dofs": 10, 
            "num_facet_dofs": 4, 
            "num_entity_dofs_0": 1, 
            "num_entity_dofs_1": 2, 
            "num_entity_dofs_2": 1, 
            "tabulate_dofs": [0, 0, 0, 10001, 10002, 10003, 10004, 10005, 10006, 30005], 
            "tabulate_facet_dofs_0": [1, 2, 3, 4], 
            "tabulate_facet_dofs_1": [0, 2, 5, 6], 
            "tabulate_facet_dofs_2": [0, 1, 7, 8], 
            "tabulate_entity_dofs_0_0": [0], 
            "tabulate_entity_dofs_0_1": [1], 
            "tabulate_entity_dofs_0_2": [2], 
            "tabulate_entity_dofs_1_0": [3, 4], 
            "tabulate_entity_dofs_1_1": [5, 6], 
            "tabulate_entity_dofs_1_2": [7, 8], 
            "tabulate_entity_dofs_2_0": [9], 
            "num_sub_dofmaps": 0, 
        },
        "dofmap_1": {
            "needs_mesh_entities_0": 1, 
            "needs_mesh_entities_1": 1, 
            "needs_mesh_entities_2": 1, 
            "global_dimension": 40008, 
            "num_element_dofs": 10, 
            "num_facet_dofs": 4, 
            "num_entity_dofs_0": 1, 
            "num_entity_dofs_1": 2, 
            "num_entity_dofs_2": 1, 
            "tabulate_dofs": [0, 0, 0, 10001, 10002, 10003, 10004, 10005, 10006, 30005], 
            "tabulate_facet_dofs_0": [1, 2, 3, 4], 
            "tabulate_facet_dofs_1": [0, 2, 5, 6], 
            "tabulate_facet_dofs_2": [0, 1, 7, 8], 
            "tabulate_entity_dofs_0_0": [0], 
            "tabulate_entity_dofs_0_1": [1], 
            "tabulate_entity_dofs_0_2": [2], 
            "tabulate_entity_dofs_1_0": [3, 4], 
            "tabulate_entity_dofs_1_1": [5, 6], 
            "tabulate_entity_dofs_1_2": [7, 8], 
            "tabulate_entity_dofs_2_0": [9], 
            "num_sub_dofmaps": 0, 
        },
        "default_cell_integral": 1, 
        "cell_integral": {
            "tabulate_tensor": [4.1314215717739677e-01, -2.0058518946445003e-02, -6.5000160472430832e-02, -3.6453719750946779e-02, -3.6453719750946779e-02, -4.9283330123884705e-01, 2.5931141279928099e-01, -1.2687993452724824e-01, 1.0522578471018681e-01, 0.0, -2.0058518946445003e-02, 4.6017341720692395e-01, -7.4683066949098167e-02, -5.6753000834456668e-01, 2.9665976635214081e-01, -4.0603536812375642e-02, -4.0603536812375642e-02, 1.0937560177161570e-01, -1.2273011746581941e-01, 0.0, -6.5000160472430832e-02, -7.4683066949098167e-02, 6.7846139033314079e-01, 3.1592046986327760e-01, -5.4826930483342984e-01, 2.8272193337184670e-01, -4.6942278066628140e-01, -5.9864240323512424e-02, -5.9864240323512424e-02, 0.0, -3.6453719750946779e-02, -5.6753000834456668e-01, 3.1592046986327760e-01, 3.0807336799537843e+00, -1.4803365106874642e+00, 7.7368573079145020e-02, 7.7368573079145020e-02, 2.5071490467937602e-01, -1.2535745233968802e+00, -4.6421143847487023e-01, -3.6453719750946779e-02, 2.9665976635214081e-01, -5.4826930483342984e-01, -1.4803365106874642e+00, 3.0807336799537843e+00, 7.7368573079145020e-02, -3.8684286539572488e-01, 2.5071490467937602e-01, 2.5071490467937602e-01, -1.5042894280762560e+00, -4.9283330123884705e-01, -4.0603536812375642e-02, 2.8272193337184670e-01, 7.7368573079145020e-02, 7.7368573079145020e-02, 3.0807336799537843e+00, -1.3682914500288852e+00, -1.4403162911611791e+00, 2.8806325823223583e-01, -4.6421143847487023e-01, 2.5931141279928099e-01, -4.0603536812375642e-02, -4.6942278066628140e-01, 7.7368573079145020e-02, -3.8684286539572488e-01, -1.3682914500288850e+00, 3.0807336799537843e+00, 2.8806325823223583e-01, 2.8806325823223583e-01, -1.7283795493934149e+00, -1.2687993452724824e-01, 1.0937560177161570e-01, -5.9864240323512424e-02, 2.5071490467937602e-01, 2.5071490467937602e-01, -1.4403162911611791e+00, 2.8806325823223583e-01, 3.0807336799537843e+00, -8.4825245522819215e-01, -1.5042894280762560e+00, 1.0522578471018680e-01, -1.2273011746581941e-01, -5.9864240323512424e-02, -1.2535745233968802e+00, 2.5071490467937602e-01, 2.8806325823223583e-01, 2.8806325823223583e-01, -8.4825245522819215e-01, 3.0807336799537843e+00, -1.7283795493934149e+00, 0.0, 0.0, 0.0, -4.6421143847487023e-01, -1.5042894280762560e+00, -4.6421143847487023e-01, -1.7283795493934149e+00, -1.5042894280762560e+00, -1.7283795493934149e+00, 7.3937608318890824e+00], 
        },
        "default_exterior_facet_integral": 0, 
        "default_interior_facet_integral": 0, 
        "default_vertex_integral": 0, 
    },
    "form_1": {
        "rank": 1, 
        "num_coefficients": 1, 
        "has_cell_integrals": 1, 
        "has_exterior_facet_integrals": 0, 
        "has_interior_facet_integrals": 0, 
        "has_vertex_integrals": 0, 
        "max_cell_subdomain_id": 0, 
        "max_exterior_facet_subdomain_id": 0, 
        "max_interior_facet_subdomain_id": 0, 
        "max_vertex_subdomain_id": 0, 
        "finite_element_0": {
            "cell_shape": 1, 
            "space_dimension": 10, 
            "value_rank": 0, 
            "evaluate_basis:_0": [6.0722982439051840e+00], 
            "evaluate_basis:_1": [2.1002899274089625e+01], 
            "evaluate_basis:_2": [-1.0078178334052765e+02], 
            "evaluate_basis:_3": [-1.1575757274913173e+02], 
            "evaluate_basis:_4": [1.9358967788149991e+02], 
            "evaluate_basis:_5": [-5.6526177183805430e+01], 
            "evaluate_basis:_6": [1.4059601114040527e+02], 
            "evaluate_basis:_7": [4.5850460530414274e+01], 
            "evaluate_basis:_8": [6.8192139288041844e+01], 
            "evaluate_basis:_9": [-2.0123796306119272e+02], 
            "evaluate_basis_all": [6.0722982439051840e+00, 2.1002899274089625e+01, -1.0078178334052765e+02, -1.1575757274913173e+02, 1.9358967788149991e+02, -5.6526177183805430e+01, 1.4059601114040527e+02, 4.5850460530414274e+01, 6.8192139288041844e+01, -2.0123796306119272e+02, 0.0, 0.0, 0.0, 0.0, 0.0, 0.0, 0.0, 0.0, 0.0, 0.0, 0.0, 0.0, 0.0, 0.0, 0.0, 0.0, 0.0, 0.0, 0.0, 0.0, 0.0, 0.0, 0.0, 0.0, 0.0, 0.0, 0.0, 0.0, 0.0, 0.0], 
            "evaluate_basis_derivatives_0_0": [6.0722982439051840e+00], 
            "evaluate_basis_derivatives_0_1": [1.4549523648357052e+00, -3.8738173942949338e+01], 
            "evaluate_basis_derivatives_0_2": [2.2517983113039008e-01, -5.9952116341582098e+00, -5.9952138737826601e+00, 1.5962251471041640e+02], 
            "evaluate_basis_derivatives_1_0": [2.1002899274089625e+01], 
            "evaluate_basis_derivatives_1_1": [-9.0339140358869912e+01, 1.7168523258109502e+01], 
            "evaluate_basis_derivatives_1_2": [2.5557013907047858e+02, -4.8569889126034191e+01, -4.8569891733682937e+01, 9.2304792944223664e+00], 
            "evaluate_basis_derivatives_2_0": [-1.0078178334052765e+02], 
            "evaluate_basis_derivatives_2_1": [2.4556399463255994e+02, 1.9714292526839318e+02], 
            "evaluate_basis_derivatives_2_2": [-3.9702473739713201e+02, -3.1873816945966934e+02, -3.1873816945966934e+02, -2.5588838956621339e+02], 
            "evaluate_basis_derivatives_3_0": [-1.1575757274913173e+02], 
            "evaluate_basis_derivatives_3_1": [4.0223832397962019e+02, 2.8375066054096152e+01], 
            "evaluate_basis_derivatives_3_2": [-9.1822456132912828e+02, -9.4127199298078196e+01, -9.4127195042645369e+01, 6.8940525528829042e+01], 
            "evaluate_basis_derivatives_4_0": [1.9358967788149991e+02], 
            "evaluate_basis_derivatives_4_1": [-5.5816950723518983e+02, -2.2388011941666247e+02], 
            "evaluate_basis_derivatives_4_2": [1.0595198853725130e+03, 4.6567523868007549e+02, 4.6567523997067929e+02, 6.4827470645568326e+01], 
            "evaluate_basis_derivatives_5_0": [-5.6526177183805430e+01], 
            "evaluate_basis_derivatives_5_1": [4.4016566988246041e+01, 2.4203056336037747e+02], 
            "evaluate_basis_derivatives_5_2": [1.3251460854985680e+01, -1.6431469979116764e+02, -1.6431469336936505e+02, -6.4410514324719838e+02], 
            "evaluate_basis_derivatives_6_0": [1.4059601114040527e+02], 
            "evaluate_basis_derivatives_6_1": [-2.3318184069599377e+02, -4.1143011765485113e+02], 
            "evaluate_basis_derivatives_6_2": [1.7828690720619738e+02, 5.2805697508029755e+02, 5.2805697378969376e+02, 7.3295754603529440e+02], 
            "evaluate_basis_derivatives_7_0": [4.5850460530414274e+01], 
            "evaluate_basis_derivatives_7_1": [-4.7376048978556113e+01, -1.5258395589866456e+02], 
            "evaluate_basis_derivatives_7_2": [-1.3861092576563408e+01, 1.8054511524733340e+02, 1.8054511624316763e+02, 2.1197021864520147e+02], 
            "evaluate_basis_derivatives_8_0": [6.8192139288041844e+01], 
            "evaluate_basis_derivatives_8_1": [-1.7079926522726709e+02, -7.2358951520606468e+01], 
            "evaluate_basis_derivatives_8_2": [2.0182311905165537e+02, 2.3027588250542163e+02, 2.3027588635686067e+02, -9.4814957317982916e+01], 
            "evaluate_basis_derivatives_9_0": [-2.0123796306119272e+02], 
            "evaluate_basis_derivatives_9_1": [4.0659198793036455e+02, 4.1427425927847219e+02], 
            "evaluate_basis_derivatives_9_2": [-3.7956633644984214e+02, -7.7280807139902345e+02, -7.7280808207625887e+02, -2.5274028816657929e+02], 
            "evaluate_basis_derivatives_all_0": [6.0722982439051840e+00, 2.1002899274089625e+01, -1.0078178334052765e+02, -1.1575757274913173e+02, 1.9358967788149991e+02, -5.6526177183805430e+01, 1.4059601114040527e+02, 4.5850460530414274e+01, 6.8192139288041844e+01, -2.0123796306119272e+02], 
            "evaluate_basis_derivatives_all_1": [1.4549523648357052e+00, -3.8738173942949338e+01, -9.0339140358869912e+01, 1.7168523258109502e+01, 2.4556399463255994e+02, 1.9714292526839318e+02, 4.0223832397962019e+02, 2.8375066054096152e+01, -5.5816950723518983e+02, -2.2388011941666247e+02, 4.4016566988246041e+01, 2.4203056336037747e+02, -2.3318184069599377e+02, -4.1143011765485113e+02, -4.7376048978556113e+01, -1.5258395589866456e+02, -1.7079926522726709e+02, -7.2358951520606468e+01, 4.0659198793036455e+02, 4.1427425927847219e+02], 
            "evaluate_basis_derivatives_all_2": [2.2517983113039008e-01, -5.9952116341582098e+00, -5.9952138737826601e+00, 1.5962251471041640e+02, 2.5557013907047858e+02, -4.8569889126034191e+01, -4.8569891733682937e+01, 9.2304792944223664e+00, -3.9702473739713201e+02, -3.1873816945966934e+02, -3.1873816945966934e+02, -2.5588838956621339e+02, -9.1822456132912828e+02, -9.4127199298078196e+01, -9.4127195042645369e+01, 6.8940525528829042e+01, 1.0595198853725130e+03, 4.6567523868007549e+02, 4.6567523997067929e+02, 6.4827470645568326e+01, 1.3251460854985680e+01, -1.6431469979116764e+02, -1.6431469336936505e+02, -6.4410514324719838e+02, 1.7828690720619738e+02, 5.2805697508029755e+02, 5.2805697378969376e+02, 7.3295754603529440e+02, -1.3861092576563408e+01, 1.8054511524733340e+02, 1.8054511624316763e+02, 2.1197021864520147e+02, 2.0182311905165537e+02, 2.3027588250542163e+02, 2.3027588635686067e+02, -9.4814957317982916e+01, -3.7956633644984214e+02, -7.7280807139902345e+02, -7.7280808207625887e+02, -2.5274028816657929e+02], 
            "evaluate_dof_0": 3.0792300000000006e-01, 
            "evaluate_dof_1": 4.3028700000000003e-01, 
            "evaluate_dof_2": 7.7282099999999998e-01, 
            "evaluate_dof_3": 5.4295033219912670e-01, 
            "evaluate_dof_4": 6.5712833448268670e-01, 
            "evaluate_dof_5": 4.5463833182492674e-01, 
            "evaluate_dof_6": 6.0960433492424670e-01, 
            "evaluate_dof_7": 3.8108699943023999e-01, 
            "evaluate_dof_8": 4.2187500024600011e-01, 
            "evaluate_dof_9": 5.1498232303368663e-01, 
            "evaluate_dofs": [3.0792300000000006e-01, 4.3028700000000003e-01, 7.7282099999999998e-01, 5.4295033219912670e-01, 6.5712833448268670e-01, 4.5463833182492674e-01, 6.0960433492424670e-01, 3.8108699943023999e-01, 4.2187500024600011e-01, 5.1498232303368663e-01], 
            "interpolate_vertex_values": [3.0792300000000006e-01, 4.3028700000000003e-01, 7.7282099999999998e-01], 
            "tabulate_dof_coordinates": [9.0300000000000002e-01, 3.4100000000000003e-01, 5.6100000000000005e-01, 7.6700000000000002e-01, 9.8699999999999999e-01, 7.8300000000000003e-01, 7.0299999857999995e-01, 7.7233333328000009e-01, 8.4500000141999998e-01, 7.7766666672000007e-01, 9.3099999972000003e-01, 4.8833333186000005e-01, 9.5900000027999999e-01, 6.3566666814000006e-01, 7.8900000114000002e-01, 4.8299999857999998e-01, 6.7499999886000006e-01, 6.2500000142000012e-01, 8.1699999182999994e-01, 6.3033332703000000e-01], 
            "num_sub_elements": 0, 
        },
        "finite_element_1": {
            "cell_shape": 1, 
            "space_dimension": 10, 
            "value_rank": 0, 
            "evaluate_basis:_0": [6.0722982439051840e+00], 
            "evaluate_basis:_1": [2.1002899274089625e+01], 
            "evaluate_basis:_2": [-1.0078178334052765e+02], 
            "evaluate_basis:_3": [-1.1575757274913173e+02], 
            "evaluate_basis:_4": [1.9358967788149991e+02], 
            "evaluate_basis:_5": [-5.6526177183805430e+01], 
            "evaluate_basis:_6": [1.4059601114040527e+02], 
            "evaluate_basis:_7": [4.5850460530414274e+01], 
            "evaluate_basis:_8": [6.8192139288041844e+01], 
            "evaluate_basis:_9": [-2.0123796306119272e+02], 
            "evaluate_basis_all": [6.0722982439051840e+00, 2.1002899274089625e+01, -1.0078178334052765e+02, -1.1575757274913173e+02, 1.9358967788149991e+02, -5.6526177183805430e+01, 1.4059601114040527e+02, 4.5850460530414274e+01, 6.8192139288041844e+01, -2.0123796306119272e+02, 0.0, 0.0, 0.0, 0.0, 0.0, 0.0, 0.0, 0.0, 0.0, 0.0, 0.0, 0.0, 0.0, 0.0, 0.0, 0.0, 0.0, 0.0, 0.0, 0.0, 0.0, 0.0, 0.0, 0.0, 0.0, 0.0, 0.0, 0.0, 0.0, 0.0], 
            "evaluate_basis_derivatives_0_0": [6.0722982439051840e+00], 
            "evaluate_basis_derivatives_0_1": [1.4549523648357052e+00, -3.8738173942949338e+01], 
            "evaluate_basis_derivatives_0_2": [2.2517983113039008e-01, -5.9952116341582098e+00, -5.9952138737826601e+00, 1.5962251471041640e+02], 
            "evaluate_basis_derivatives_1_0": [2.1002899274089625e+01], 
            "evaluate_basis_derivatives_1_1": [-9.0339140358869912e+01, 1.7168523258109502e+01], 
            "evaluate_basis_derivatives_1_2": [2.5557013907047858e+02, -4.8569889126034191e+01, -4.8569891733682937e+01, 9.2304792944223664e+00], 
            "evaluate_basis_derivatives_2_0": [-1.0078178334052765e+02], 
            "evaluate_basis_derivatives_2_1": [2.4556399463255994e+02, 1.9714292526839318e+02], 
            "evaluate_basis_derivatives_2_2": [-3.9702473739713201e+02, -3.1873816945966934e+02, -3.1873816945966934e+02, -2.5588838956621339e+02], 
            "evaluate_basis_derivatives_3_0": [-1.1575757274913173e+02], 
            "evaluate_basis_derivatives_3_1": [4.0223832397962019e+02, 2.8375066054096152e+01], 
            "evaluate_basis_derivatives_3_2": [-9.1822456132912828e+02, -9.4127199298078196e+01, -9.4127195042645369e+01, 6.8940525528829042e+01], 
            "evaluate_basis_derivatives_4_0": [1.9358967788149991e+02], 
            "evaluate_basis_derivatives_4_1": [-5.5816950723518983e+02, -2.2388011941666247e+02], 
            "evaluate_basis_derivatives_4_2": [1.0595198853725130e+03, 4.6567523868007549e+02, 4.6567523997067929e+02, 6.4827470645568326e+01], 
            "evaluate_basis_derivatives_5_0": [-5.6526177183805430e+01], 
            "evaluate_basis_derivatives_5_1": [4.4016566988246041e+01, 2.4203056336037747e+02], 
            "evaluate_basis_derivatives_5_2": [1.3251460854985680e+01, -1.6431469979116764e+02, -1.6431469336936505e+02, -6.4410514324719838e+02], 
            "evaluate_basis_derivatives_6_0": [1.4059601114040527e+02], 
            "evaluate_basis_derivatives_6_1": [-2.3318184069599377e+02, -4.1143011765485113e+02], 
            "evaluate_basis_derivatives_6_2": [1.7828690720619738e+02, 5.2805697508029755e+02, 5.2805697378969376e+02, 7.3295754603529440e+02], 
            "evaluate_basis_derivatives_7_0": [4.5850460530414274e+01], 
            "evaluate_basis_derivatives_7_1": [-4.7376048978556113e+01, -1.5258395589866456e+02], 
            "evaluate_basis_derivatives_7_2": [-1.3861092576563408e+01, 1.8054511524733340e+02, 1.8054511624316763e+02, 2.1197021864520147e+02], 
            "evaluate_basis_derivatives_8_0": [6.8192139288041844e+01], 
            "evaluate_basis_derivatives_8_1": [-1.7079926522726709e+02, -7.2358951520606468e+01], 
            "evaluate_basis_derivatives_8_2": [2.0182311905165537e+02, 2.3027588250542163e+02, 2.3027588635686067e+02, -9.4814957317982916e+01], 
            "evaluate_basis_derivatives_9_0": [-2.0123796306119272e+02], 
            "evaluate_basis_derivatives_9_1": [4.0659198793036455e+02, 4.1427425927847219e+02], 
            "evaluate_basis_derivatives_9_2": [-3.7956633644984214e+02, -7.7280807139902345e+02, -7.7280808207625887e+02, -2.5274028816657929e+02], 
            "evaluate_basis_derivatives_all_0": [6.0722982439051840e+00, 2.1002899274089625e+01, -1.0078178334052765e+02, -1.1575757274913173e+02, 1.9358967788149991e+02, -5.6526177183805430e+01, 1.4059601114040527e+02, 4.5850460530414274e+01, 6.8192139288041844e+01, -2.0123796306119272e+02], 
            "evaluate_basis_derivatives_all_1": [1.4549523648357052e+00, -3.8738173942949338e+01, -9.0339140358869912e+01, 1.7168523258109502e+01, 2.4556399463255994e+02, 1.9714292526839318e+02, 4.0223832397962019e+02, 2.8375066054096152e+01, -5.5816950723518983e+02, -2.2388011941666247e+02, 4.4016566988246041e+01, 2.4203056336037747e+02, -2.3318184069599377e+02, -4.1143011765485113e+02, -4.7376048978556113e+01, -1.5258395589866456e+02, -1.7079926522726709e+02, -7.2358951520606468e+01, 4.0659198793036455e+02, 4.1427425927847219e+02], 
            "evaluate_basis_derivatives_all_2": [2.2517983113039008e-01, -5.9952116341582098e+00, -5.9952138737826601e+00, 1.5962251471041640e+02, 2.5557013907047858e+02, -4.8569889126034191e+01, -4.8569891733682937e+01, 9.2304792944223664e+00, -3.9702473739713201e+02, -3.1873816945966934e+02, -3.1873816945966934e+02, -2.5588838956621339e+02, -9.1822456132912828e+02, -9.4127199298078196e+01, -9.4127195042645369e+01, 6.8940525528829042e+01, 1.0595198853725130e+03, 4.6567523868007549e+02, 4.6567523997067929e+02, 6.4827470645568326e+01, 1.3251460854985680e+01, -1.6431469979116764e+02, -1.6431469336936505e+02, -6.4410514324719838e+02, 1.7828690720619738e+02, 5.2805697508029755e+02, 5.2805697378969376e+02, 7.3295754603529440e+02, -1.3861092576563408e+01, 1.8054511524733340e+02, 1.8054511624316763e+02, 2.1197021864520147e+02, 2.0182311905165537e+02, 2.3027588250542163e+02, 2.3027588635686067e+02, -9.4814957317982916e+01, -3.7956633644984214e+02, -7.7280807139902345e+02, -7.7280808207625887e+02, -2.5274028816657929e+02], 
            "evaluate_dof_0": 3.0792300000000006e-01, 
            "evaluate_dof_1": 4.3028700000000003e-01, 
            "evaluate_dof_2": 7.7282099999999998e-01, 
            "evaluate_dof_3": 5.4295033219912670e-01, 
            "evaluate_dof_4": 6.5712833448268670e-01, 
            "evaluate_dof_5": 4.5463833182492674e-01, 
            "evaluate_dof_6": 6.0960433492424670e-01, 
            "evaluate_dof_7": 3.8108699943023999e-01, 
            "evaluate_dof_8": 4.2187500024600011e-01, 
            "evaluate_dof_9": 5.1498232303368663e-01, 
            "evaluate_dofs": [3.0792300000000006e-01, 4.3028700000000003e-01, 7.7282099999999998e-01, 5.4295033219912670e-01, 6.5712833448268670e-01, 4.5463833182492674e-01, 6.0960433492424670e-01, 3.8108699943023999e-01, 4.2187500024600011e-01, 5.1498232303368663e-01], 
            "interpolate_vertex_values": [3.0792300000000006e-01, 4.3028700000000003e-01, 7.7282099999999998e-01], 
            "tabulate_dof_coordinates": [9.0300000000000002e-01, 3.4100000000000003e-01, 5.6100000000000005e-01, 7.6700000000000002e-01, 9.8699999999999999e-01, 7.8300000000000003e-01, 7.0299999857999995e-01, 7.7233333328000009e-01, 8.4500000141999998e-01, 7.7766666672000007e-01, 9.3099999972000003e-01, 4.8833333186000005e-01, 9.5900000027999999e-01, 6.3566666814000006e-01, 7.8900000114000002e-01, 4.8299999857999998e-01, 6.7499999886000006e-01, 6.2500000142000012e-01, 8.1699999182999994e-01, 6.3033332703000000e-01], 
            "num_sub_elements": 0, 
        },
        "dofmap_0": {
            "needs_mesh_entities_0": 1, 
            "needs_mesh_entities_1": 1, 
            "needs_mesh_entities_2": 1, 
            "global_dimension": 40008, 
            "num_element_dofs": 10, 
            "num_facet_dofs": 4, 
            "num_entity_dofs_0": 1, 
            "num_entity_dofs_1": 2, 
            "num_entity_dofs_2": 1, 
            "tabulate_dofs": [0, 0, 0, 10001, 10002, 10003, 10004, 10005, 10006, 30005], 
            "tabulate_facet_dofs_0": [1, 2, 3, 4], 
            "tabulate_facet_dofs_1": [0, 2, 5, 6], 
            "tabulate_facet_dofs_2": [0, 1, 7, 8], 
            "tabulate_entity_dofs_0_0": [0], 
            "tabulate_entity_dofs_0_1": [1], 
            "tabulate_entity_dofs_0_2": [2], 
            "tabulate_entity_dofs_1_0": [3, 4], 
            "tabulate_entity_dofs_1_1": [5, 6], 
            "tabulate_entity_dofs_1_2": [7, 8], 
            "tabulate_entity_dofs_2_0": [9], 
            "num_sub_dofmaps": 0, 
        },
        "dofmap_1": {
            "needs_mesh_entities_0": 1, 
            "needs_mesh_entities_1": 1, 
            "needs_mesh_entities_2": 1, 
            "global_dimension": 40008, 
            "num_element_dofs": 10, 
            "num_facet_dofs": 4, 
            "num_entity_dofs_0": 1, 
            "num_entity_dofs_1": 2, 
            "num_entity_dofs_2": 1, 
            "tabulate_dofs": [0, 0, 0, 10001, 10002, 10003, 10004, 10005, 10006, 30005], 
            "tabulate_facet_dofs_0": [1, 2, 3, 4], 
            "tabulate_facet_dofs_1": [0, 2, 5, 6], 
            "tabulate_facet_dofs_2": [0, 1, 7, 8], 
            "tabulate_entity_dofs_0_0": [0], 
            "tabulate_entity_dofs_0_1": [1], 
            "tabulate_entity_dofs_0_2": [2], 
            "tabulate_entity_dofs_1_0": [3, 4], 
            "tabulate_entity_dofs_1_1": [5, 6], 
            "tabulate_entity_dofs_1_2": [7, 8], 
            "tabulate_entity_dofs_2_0": [9], 
            "num_sub_dofmaps": 0, 
        },
        "default_cell_integral": 1, 
        "cell_integral": {
            "tabulate_tensor": [1.3715083884059999e-03, 1.5871106228812558e-03, 1.8027128573565119e-03, 4.1437357042219194e-03, 4.2814429190053196e-03, 5.0951674704402001e-03, 5.0325732587887199e-03, 5.8462978102235994e-03, 5.9840050250070005e-03, 3.6129370397033518e-02], 
        },
        "default_exterior_facet_integral": 0, 
        "default_interior_facet_integral": 0, 
        "default_vertex_integral": 0, 
    },
}
