{
    "finite_element_0": {
        "cell_shape": 1, 
        "space_dimension": 21, 
        "value_rank": 0, 
        "evaluate_basis:_0": [3.0612104565784080e+01], 
        "evaluate_basis:_1": [2.7445003462949489e+02], 
        "evaluate_basis:_2": [-5.2018042897645792e+03], 
        "evaluate_basis:_3": [-2.7950813190116382e+03], 
        "evaluate_basis:_4": [1.0573826142664300e+04], 
        "evaluate_basis:_5": [-1.8841446137337629e+04], 
        "evaluate_basis:_6": [1.5980241658068251e+04], 
        "evaluate_basis:_7": [-5.6918991473507776e+02], 
        "evaluate_basis:_8": [3.5233790200454823e+03], 
        "evaluate_basis:_9": [-9.5278021022968060e+03], 
        "evaluate_basis:_10": [1.1605774852830296e+04], 
        "evaluate_basis:_11": [4.6169100888230406e+02], 
        "evaluate_basis:_12": [1.9345604690314835e+03], 
        "evaluate_basis:_13": [2.9358483378473138e+03], 
        "evaluate_basis:_14": [1.6465669181842536e+03], 
        "evaluate_basis:_15": [-5.2922595088156277e+03], 
        "evaluate_basis:_16": [-1.3528334001503230e+04], 
        "evaluate_basis:_17": [-1.1534658187999605e+04], 
        "evaluate_basis:_18": [1.9985522120154863e+04], 
        "evaluate_basis:_19": [2.8703033292257096e+04], 
        "evaluate_basis:_20": [-3.0363929032659227e+04], 
        "evaluate_basis_all": [3.0612104565784080e+01, 2.7445003462949489e+02, -5.2018042897645792e+03, -2.7950813190116382e+03, 1.0573826142664300e+04, -1.8841446137337629e+04, 1.5980241658068251e+04, -5.6918991473507776e+02, 3.5233790200454823e+03, -9.5278021022968060e+03, 1.1605774852830296e+04, 4.6169100888230406e+02, 1.9345604690314835e+03, 2.9358483378473138e+03, 1.6465669181842536e+03, -5.2922595088156277e+03, -1.3528334001503230e+04, -1.1534658187999605e+04, 1.9985522120154863e+04, 2.8703033292257096e+04, -3.0363929032659227e+04, 0.0, 0.0, 0.0, 0.0, 0.0, 0.0, 0.0, 0.0, 0.0, 0.0, 0.0, 0.0, 0.0, 0.0, 0.0, 0.0, 0.0, 0.0, 0.0, 0.0, 0.0, 0.0, 0.0, 0.0, 0.0, 0.0, 0.0, 0.0, 0.0, 0.0, 0.0, 0.0, 0.0, 0.0, 0.0, 0.0, 0.0, 0.0, 0.0, 0.0, 0.0, 0.0, 0.0, 0.0, 0.0, 0.0, 0.0, 0.0, 0.0, 0.0, 0.0, 0.0, 0.0, 0.0, 0.0, 0.0, 0.0, 0.0, 0.0, 0.0, 0.0, 0.0, 0.0], 
        "evaluate_basis_derivatives_0_0": [3.0612104565784080e+01], 
        "evaluate_basis_derivatives_0_1": [1.3188481453616987e+01, -3.5114244552580550e+02], 
        "evaluate_basis_derivatives_0_2": [4.4529452847618813e+00, -1.1856057543783254e+02, -1.1856018647923793e+02, 3.1566596071906561e+03], 
        "evaluate_basis_derivatives_1_0": [2.7445003462949489e+02], 
        "evaluate_basis_derivatives_1_1": [-2.0580964566125695e+03, 3.9113148615324468e+02], 
        "evaluate_basis_derivatives_1_2": [1.2247271999513987e+04, -2.3275359437166121e+03, -2.3275362714187454e+03, 4.4233709855013655e+02], 
        "evaluate_basis_derivatives_2_0": [-5.2018042897645792e+03], 
        "evaluate_basis_derivatives_2_1": [2.0644978636885295e+04, 1.6574137778907912e+04], 
        "evaluate_basis_derivatives_2_2": [-6.5389594746020979e+04, -5.2495871838354869e+04, -5.2495871838354869e+04, -4.2144573166003203e+04], 
        "evaluate_basis_derivatives_3_0": [-2.7950813190116382e+03], 
        "evaluate_basis_derivatives_3_1": [1.8122150888470031e+04, -9.1308138779368642e+02], 
        "evaluate_basis_derivatives_3_2": [-9.3104297241206790e+04, 3.5926635040399233e+03, 3.5926660790530645e+03, 1.9971308732949303e+03], 
        "evaluate_basis_derivatives_4_0": [1.0573826142664300e+04], 
        "evaluate_basis_derivatives_4_1": [-5.9961978599776194e+04, -7.0441109138811507e+03], 
        "evaluate_basis_derivatives_4_2": [2.6925571309506102e+05, 3.7178484962889634e+04, 3.7178478438393446e+04, -7.8014369157803339e+03], 
        "evaluate_basis_derivatives_5_0": [-1.8841446137337629e+04], 
        "evaluate_basis_derivatives_5_1": [9.4272988335902104e+04, 2.9647826927450449e+04], 
        "evaluate_basis_derivatives_5_2": [-3.7373662499605148e+05, -1.2649875722245665e+05, -1.2649874932953453e+05, -1.8321335840328618e+04], 
        "evaluate_basis_derivatives_6_0": [1.5980241658068251e+04], 
        "evaluate_basis_derivatives_6_1": [-7.1025481163195756e+04, -3.8511130924217730e+04], 
        "evaluate_basis_derivatives_6_2": [2.5072520470477286e+05, 1.4061302997670812e+05, 1.4061302576365077e+05, 6.4176881074276054e+04], 
        "evaluate_basis_derivatives_7_0": [-5.6918991473507776e+02], 
        "evaluate_basis_derivatives_7_1": [3.4638948333981443e+02, 5.0153403848795197e+03], 
        "evaluate_basis_derivatives_7_2": [2.7624773937342252e+02, -3.0345859038489289e+03, -3.0345889956712454e+03, -3.4235313075777238e+04], 
        "evaluate_basis_derivatives_8_0": [3.5233790200454823e+03], 
        "evaluate_basis_derivatives_8_1": [-5.4652743111738964e+03, -2.4225818130374053e+04], 
        "evaluate_basis_derivatives_8_2": [2.9841743356791267e+03, 3.4548099788228574e+04, 3.4548107477312122e+04, 1.2738443597711057e+05], 
        "evaluate_basis_derivatives_9_0": [-9.5278021022968060e+03], 
        "evaluate_basis_derivatives_9_1": [2.3030071976345607e+04, 5.1268939325851934e+04], 
        "evaluate_basis_derivatives_9_2": [-3.4984524645076512e+04, -1.0938700850012139e+05, -1.0938701721694287e+05, -2.0917694923080038e+05], 
        "evaluate_basis_derivatives_10_0": [1.1605774852830296e+04], 
        "evaluate_basis_derivatives_10_1": [-3.7368787846847576e+04, -4.8509620252859313e+04], 
        "evaluate_basis_derivatives_10_2": [8.8904266418261628e+04, 1.3204724965727728e+05, 1.3204725387033462e+05, 1.5471939975864181e+05], 
        "evaluate_basis_derivatives_11_0": [4.6169100888230406e+02], 
        "evaluate_basis_derivatives_11_1": [-3.9850700295941897e+02, -3.6277282138547976e+03], 
        "evaluate_basis_derivatives_11_2": [-2.9540502828436365e+02, 3.5447083856987483e+03, 3.5447093133504222e+03, 2.0653393786587691e+04], 
        "evaluate_basis_derivatives_12_0": [1.9345604690314835e+03], 
        "evaluate_basis_derivatives_12_1": [-4.3636456404241899e+03, -9.6688557569176664e+03], 
        "evaluate_basis_derivatives_12_2": [3.9414210644474369e+03, 2.3661346917989260e+04, 2.3661346411686569e+04, 2.8523019783497464e+04], 
        "evaluate_basis_derivatives_13_0": [2.9358483378473138e+03], 
        "evaluate_basis_derivatives_13_1": [-1.1123717507769707e+04, -7.6210193838220703e+03], 
        "evaluate_basis_derivatives_13_2": [2.7007860960933729e+04, 3.2366415980592377e+04, 3.2366416292070935e+04, 2.7768996366843458e+03], 
        "evaluate_basis_derivatives_14_0": [1.6465669181842536e+03], 
        "evaluate_basis_derivatives_14_1": [-9.0782292472730751e+03, -8.0567327471999329e+02], 
        "evaluate_basis_derivatives_14_2": [3.7046833444905460e+04, 7.0607915267249064e+03, 7.0607907326408995e+03, -4.0217678981638269e+03], 
        "evaluate_basis_derivatives_15_0": [-5.2922595088156277e+03], 
        "evaluate_basis_derivatives_15_1": [9.9140850105297468e+03, 3.1627157967635765e+04], 
        "evaluate_basis_derivatives_15_2": [-6.8923215825057996e+03, -5.9095336059249792e+04, -5.9095338484008927e+04, -1.3232084031923133e+05], 
        "evaluate_basis_derivatives_16_0": [-1.3528334001503230e+04], 
        "evaluate_basis_derivatives_16_1": [4.3933024342868819e+04, 4.8759480938766217e+04], 
        "evaluate_basis_derivatives_16_2": [-9.0237719955965236e+04, -1.5996675652466636e+05, -1.5996675593787408e+05, -9.1157310598436408e+04], 
        "evaluate_basis_derivatives_17_0": [-1.1534658187999605e+04], 
        "evaluate_basis_derivatives_17_1": [5.4999881975048273e+04, 1.7722163060878811e+04], 
        "evaluate_basis_derivatives_17_2": [-1.9323007965136087e+05, -8.9125926810349192e+04, -8.9125924455573171e+04, 8.7458172669924461e+03], 
        "evaluate_basis_derivatives_18_0": [1.9985522120154863e+04], 
        "evaluate_basis_derivatives_18_1": [-5.5911123622855273e+04, -9.0497256578227330e+04], 
        "evaluate_basis_derivatives_18_2": [9.8185182304400834e+04, 2.3776501720219804e+05, 2.3776501984406181e+05, 2.7685225157816446e+05], 
        "evaluate_basis_derivatives_19_0": [2.8703033292257096e+04], 
        "evaluate_basis_derivatives_19_1": [-1.1938137275685187e+05, -7.1486697610862000e+04], 
        "evaluate_basis_derivatives_19_2": [3.6494425753289810e+05, 2.8087532275482774e+05, 2.8087531894837657e+05, 7.7521294548733582e+04], 
        "evaluate_basis_derivatives_20_0": [-3.0363929032659227e+04], 
        "evaluate_basis_derivatives_20_1": [1.1085944906565036e+05, 1.0225595276912503e+05], 
        "evaluate_basis_derivatives_20_2": [-2.9765229857981106e+05, -3.3120277876176231e+05, -3.3120277793786291e+05, -2.2776998236425160e+05], 
        "evaluate_basis_derivatives_all_0": [3.0612104565784080e+01, 2.7445003462949489e+02, -5.2018042897645792e+03, -2.7950813190116382e+03, 1.0573826142664300e+04, -1.8841446137337629e+04, 1.5980241658068251e+04, -5.6918991473507776e+02, 3.5233790200454823e+03, -9.5278021022968060e+03, 1.1605774852830296e+04, 4.6169100888230406e+02, 1.9345604690314835e+03, 2.9358483378473138e+03, 1.6465669181842536e+03, -5.2922595088156277e+03, -1.3528334001503230e+04, -1.1534658187999605e+04, 1.9985522120154863e+04, 2.8703033292257096e+04, -3.0363929032659227e+04], 
        "evaluate_basis_derivatives_all_1": [1.3188481453616987e+01, -3.5114244552580550e+02, -2.0580964566125695e+03, 3.9113148615324468e+02, 2.0644978636885295e+04, 1.6574137778907912e+04, 1.8122150888470031e+04, -9.1308138779368642e+02, -5.9961978599776194e+04, -7.0441109138811507e+03, 9.4272988335902104e+04, 2.9647826927450449e+04, -7.1025481163195756e+04, -3.8511130924217730e+04, 3.4638948333981443e+02, 5.0153403848795197e+03, -5.4652743111738964e+03, -2.4225818130374053e+04, 2.3030071976345607e+04, 5.1268939325851934e+04, -3.7368787846847576e+04, -4.8509620252859313e+04, -3.9850700295941897e+02, -3.6277282138547976e+03, -4.3636456404241899e+03, -9.6688557569176664e+03, -1.1123717507769707e+04, -7.6210193838220703e+03, -9.0782292472730751e+03, -8.0567327471999329e+02, 9.9140850105297468e+03, 3.1627157967635765e+04, 4.3933024342868819e+04, 4.8759480938766217e+04, 5.4999881975048273e+04, 1.7722163060878811e+04, -5.5911123622855273e+04, -9.0497256578227330e+04, -1.1938137275685187e+05, -7.1486697610862000e+04, 1.1085944906565036e+05, 1.0225595276912503e+05], 
        "evaluate_basis_derivatives_all_2": [4.4529452847618813e+00, -1.1856057543783254e+02, -1.1856018647923793e+02, 3.1566596071906561e+03, 1.2247271999513987e+04, -2.3275359437166121e+03, -2.3275362714187454e+03, 4.4233709855013655e+02, -6.5389594746020979e+04, -5.2495871838354869e+04, -5.2495871838354869e+04, -4.2144573166003203e+04, -9.3104297241206790e+04, 3.5926635040399233e+03, 3.5926660790530645e+03, 1.9971308732949303e+03, 2.6925571309506102e+05, 3.7178484962889634e+04, 3.7178478438393446e+04, -7.8014369157803339e+03, -3.7373662499605148e+05, -1.2649875722245665e+05, -1.2649874932953453e+05, -1.8321335840328618e+04, 2.5072520470477286e+05, 1.4061302997670812e+05, 1.4061302576365077e+05, 6.4176881074276054e+04, 2.7624773937342252e+02, -3.0345859038489289e+03, -3.0345889956712454e+03, -3.4235313075777238e+04, 2.9841743356791267e+03, 3.4548099788228574e+04, 3.4548107477312122e+04, 1.2738443597711057e+05, -3.4984524645076512e+04, -1.0938700850012139e+05, -1.0938701721694287e+05, -2.0917694923080038e+05, 8.8904266418261628e+04, 1.3204724965727728e+05, 1.3204725387033462e+05, 1.5471939975864181e+05, -2.9540502828436365e+02, 3.5447083856987483e+03, 3.5447093133504222e+03, 2.0653393786587691e+04, 3.9414210644474369e+03, 2.3661346917989260e+04, 2.3661346411686569e+04, 2.8523019783497464e+04, 2.7007860960933729e+04, 3.2366415980592377e+04, 3.2366416292070935e+04, 2.7768996366843458e+03, 3.7046833444905460e+04, 7.0607915267249064e+03, 7.0607907326408995e+03, -4.0217678981638269e+03, -6.8923215825057996e+03, -5.9095336059249792e+04, -5.9095338484008927e+04, -1.3232084031923133e+05, -9.0237719955965236e+04, -1.5996675652466636e+05, -1.5996675593787408e+05, -9.1157310598436408e+04, -1.9323007965136087e+05, -8.9125926810349192e+04, -8.9125924455573171e+04, 8.7458172669924461e+03, 9.8185182304400834e+04, 2.3776501720219804e+05, 2.3776501984406181e+05, 2.7685225157816446e+05, 3.6494425753289810e+05, 2.8087532275482774e+05, 2.8087531894837657e+05, 7.7521294548733582e+04, -2.9765229857981106e+05, -3.3120277876176231e+05, -3.3120277793786291e+05, -2.2776998236425160e+05], 
        "evaluate_dof_0": 3.0792300000000006e-01, 
        "evaluate_dof_1": 4.3028700000000003e-01, 
        "evaluate_dof_2": 7.7282099999999998e-01, 
        "evaluate_dof_3": 4.9770324000000010e-01, 
        "evaluate_dof_4": 5.6566476000000010e-01, 
        "evaluate_dof_5": 6.3417155999999997e-01, 
        "evaluate_dof_6": 7.0322364000000015e-01, 
        "evaluate_dof_7": 3.9496212000000008e-01, 
        "evaluate_dof_8": 4.8497148000000001e-01, 
        "evaluate_dof_9": 5.7795108000000006e-01, 
        "evaluate_dof_10": 6.7390092000000013e-01, 
        "evaluate_dof_11": 3.5570652000000003e-01, 
        "evaluate_dof_12": 3.9183468000000005e-01, 
        "evaluate_dof_13": 4.1630748000000001e-01, 
        "evaluate_dof_14": 4.2912492000000008e-01, 
        "evaluate_dof_15": 4.3813043999999990e-01, 
        "evaluate_dof_16": 4.6964340000000016e-01, 
        "evaluate_dof_17": 4.8950100000000002e-01, 
        "evaluate_dof_18": 5.2352460000000012e-01, 
        "evaluate_dof_19": 5.5042236000000011e-01, 
        "evaluate_dof_20": 6.1188900000000002e-01, 
        "evaluate_dofs": [3.0792300000000006e-01, 4.3028700000000003e-01, 7.7282099999999998e-01, 4.9770324000000010e-01, 5.6566476000000010e-01, 6.3417155999999997e-01, 7.0322364000000015e-01, 3.9496212000000008e-01, 4.8497148000000001e-01, 5.7795108000000006e-01, 6.7390092000000013e-01, 3.5570652000000003e-01, 3.9183468000000005e-01, 4.1630748000000001e-01, 4.2912492000000008e-01, 4.3813043999999990e-01, 4.6964340000000016e-01, 4.8950100000000002e-01, 5.2352460000000012e-01, 5.5042236000000011e-01, 6.1188900000000002e-01], 
        "interpolate_vertex_values": [3.0792300000000006e-01, 4.3028700000000003e-01, 7.7282099999999998e-01], 
        "tabulate_dof_coordinates": [9.0300000000000002e-01, 3.4100000000000003e-01, 5.6100000000000005e-01, 7.6700000000000002e-01, 9.8699999999999999e-01, 7.8300000000000003e-01, 6.4620000000000011e-01, 7.7020000000000000e-01, 7.3140000000000005e-01, 7.7340000000000009e-01, 8.1659999999999999e-01, 7.7659999999999996e-01, 9.0180000000000016e-01, 7.7980000000000005e-01, 9.1980000000000006e-01, 4.2940000000000006e-01, 9.3659999999999999e-01, 5.1780000000000004e-01, 9.5340000000000003e-01, 6.0620000000000007e-01, 9.7020000000000006e-01, 6.9460000000000011e-01, 8.3460000000000001e-01, 4.2620000000000002e-01, 7.6619999999999999e-01, 5.1140000000000008e-01, 6.9779999999999998e-01, 5.9660000000000002e-01, 6.2940000000000007e-01, 6.8180000000000007e-01, 8.5139999999999993e-01, 5.1459999999999995e-01, 7.8300000000000014e-01, 5.9980000000000011e-01, 7.1460000000000001e-01, 6.8500000000000005e-01, 8.6820000000000008e-01, 6.0300000000000009e-01, 7.9980000000000007e-01, 6.8820000000000003e-01, 8.8500000000000001e-01, 6.9140000000000001e-01], 
        "num_sub_elements": 0, 
    },
}
