{
    "form_0": {
        "rank": 2, 
        "num_coefficients": 0, 
        "has_cell_integrals": 1, 
        "has_exterior_facet_integrals": 0, 
        "has_interior_facet_integrals": 0, 
        "has_vertex_integrals": 0, 
        "max_cell_subdomain_id": 0, 
        "max_exterior_facet_subdomain_id": 0, 
        "max_interior_facet_subdomain_id": 0, 
        "max_vertex_subdomain_id": 0, 
        "finite_element_0": {
            "cell_shape": 0, 
            "space_dimension": 2, 
            "value_rank": 0, 
            "evaluate_basis:_0": [-1.6403508756000720e+00], 
            "evaluate_basis:_1": [2.6403508739220403e+00], 
            "evaluate_basis_all": [-1.6403508756000720e+00, 2.6403508739220403e+00], 
            "evaluate_basis_derivatives_0_0": [-1.6403508756000720e+00], 
            "evaluate_basis_derivatives_0_1": [2.9239765920873655e+00], 
            "evaluate_basis_derivatives_0_2": [0.0], 
            "evaluate_basis_derivatives_1_0": [2.6403508739220403e+00], 
            "evaluate_basis_derivatives_1_1": [-2.9239765920873655e+00], 
            "evaluate_basis_derivatives_1_2": [0.0], 
            "evaluate_basis_derivatives_all_0": [-1.6403508756000720e+00, 2.6403508739220403e+00], 
            "evaluate_basis_derivatives_all_1": [2.9239765920873655e+00, -2.9239765920873655e+00], 
            "evaluate_basis_derivatives_all_2": [0.0, 0.0], 
            "evaluate_dof_0": 9.0300000000000002e-01, 
            "evaluate_dof_1": 5.6100000000000005e-01, 
            "evaluate_dofs": [9.0300000000000002e-01, 5.6100000000000005e-01], 
            "interpolate_vertex_values": [9.0300000000000002e-01, 5.6100000000000005e-01], 
            "tabulate_dof_coordinates": [9.0300000000000002e-01, 5.6100000000000005e-01], 
            "num_sub_elements": 0, 
        },
        "finite_element_1": {
            "cell_shape": 0, 
            "space_dimension": 2, 
            "value_rank": 0, 
            "evaluate_basis:_0": [-1.6403508756000720e+00], 
            "evaluate_basis:_1": [2.6403508739220403e+00], 
            "evaluate_basis_all": [-1.6403508756000720e+00, 2.6403508739220403e+00], 
            "evaluate_basis_derivatives_0_0": [-1.6403508756000720e+00], 
            "evaluate_basis_derivatives_0_1": [2.9239765920873655e+00], 
            "evaluate_basis_derivatives_0_2": [0.0], 
            "evaluate_basis_derivatives_1_0": [2.6403508739220403e+00], 
            "evaluate_basis_derivatives_1_1": [-2.9239765920873655e+00], 
            "evaluate_basis_derivatives_1_2": [0.0], 
            "evaluate_basis_derivatives_all_0": [-1.6403508756000720e+00, 2.6403508739220403e+00], 
            "evaluate_basis_derivatives_all_1": [2.9239765920873655e+00, -2.9239765920873655e+00], 
            "evaluate_basis_derivatives_all_2": [0.0, 0.0], 
            "evaluate_dof_0": 9.0300000000000002e-01, 
            "evaluate_dof_1": 5.6100000000000005e-01, 
            "evaluate_dofs": [9.0300000000000002e-01, 5.6100000000000005e-01], 
            "interpolate_vertex_values": [9.0300000000000002e-01, 5.6100000000000005e-01], 
            "tabulate_dof_coordinates": [9.0300000000000002e-01, 5.6100000000000005e-01], 
            "num_sub_elements": 0, 
        },
        "dofmap_0": {
            "needs_mesh_entities_0": 1, 
            "needs_mesh_entities_1": 0, 
            "global_dimension": 10001, 
            "num_element_dofs": 2, 
            "num_facet_dofs": 1, 
            "num_entity_dofs_0": 1, 
            "num_entity_dofs_1": 0, 
            "tabulate_dofs": [0, 0], 
            "tabulate_facet_dofs_0": [0], 
            "tabulate_facet_dofs_1": [1], 
            "tabulate_entity_dofs_0_0": [0], 
            "tabulate_entity_dofs_0_1": [1], 
            "tabulate_entity_dofs_1_0": [], 
            "num_sub_dofmaps": 0, 
        },
        "dofmap_1": {
            "needs_mesh_entities_0": 1, 
            "needs_mesh_entities_1": 0, 
            "global_dimension": 10001, 
            "num_element_dofs": 2, 
            "num_facet_dofs": 1, 
            "num_entity_dofs_0": 1, 
            "num_entity_dofs_1": 0, 
            "tabulate_dofs": [0, 0], 
            "tabulate_facet_dofs_0": [0], 
            "tabulate_facet_dofs_1": [1], 
            "tabulate_entity_dofs_0_0": [0], 
            "tabulate_entity_dofs_0_1": [1], 
            "tabulate_entity_dofs_1_0": [], 
            "num_sub_dofmaps": 0, 
        },
        "default_cell_integral": 1, 
        "cell_integral": {
            "tabulate_tensor": [2.9239766081871341e+00, -2.9239766081871341e+00, -2.9239766081871341e+00, 2.9239766081871341e+00], 
        },
        "default_exterior_facet_integral": 0, 
        "default_interior_facet_integral": 0, 
        "default_vertex_integral": 0, 
    },
    "form_1": {
        "rank": 1, 
        "num_coefficients": 1, 
        "has_cell_integrals": 1, 
        "has_exterior_facet_integrals": 0, 
        "has_interior_facet_integrals": 0, 
        "has_vertex_integrals": 0, 
        "max_cell_subdomain_id": 0, 
        "max_exterior_facet_subdomain_id": 0, 
        "max_interior_facet_subdomain_id": 0, 
        "max_vertex_subdomain_id": 0, 
        "finite_element_0": {
            "cell_shape": 0, 
            "space_dimension": 2, 
            "value_rank": 0, 
            "evaluate_basis:_0": [-1.6403508756000720e+00], 
            "evaluate_basis:_1": [2.6403508739220403e+00], 
            "evaluate_basis_all": [-1.6403508756000720e+00, 2.6403508739220403e+00], 
            "evaluate_basis_derivatives_0_0": [-1.6403508756000720e+00], 
            "evaluate_basis_derivatives_0_1": [2.9239765920873655e+00], 
            "evaluate_basis_derivatives_0_2": [0.0], 
            "evaluate_basis_derivatives_1_0": [2.6403508739220403e+00], 
            "evaluate_basis_derivatives_1_1": [-2.9239765920873655e+00], 
            "evaluate_basis_derivatives_1_2": [0.0], 
            "evaluate_basis_derivatives_all_0": [-1.6403508756000720e+00, 2.6403508739220403e+00], 
            "evaluate_basis_derivatives_all_1": [2.9239765920873655e+00, -2.9239765920873655e+00], 
            "evaluate_basis_derivatives_all_2": [0.0, 0.0], 
            "evaluate_dof_0": 9.0300000000000002e-01, 
            "evaluate_dof_1": 5.6100000000000005e-01, 
            "evaluate_dofs": [9.0300000000000002e-01, 5.6100000000000005e-01], 
            "interpolate_vertex_values": [9.0300000000000002e-01, 5.6100000000000005e-01], 
            "tabulate_dof_coordinates": [9.0300000000000002e-01, 5.6100000000000005e-01], 
            "num_sub_elements": 0, 
        },
        "finite_element_1": {
            "cell_shape": 0, 
            "space_dimension": 2, 
            "value_rank": 0, 
            "evaluate_basis:_0": [-1.6403508756000720e+00], 
            "evaluate_basis:_1": [2.6403508739220403e+00], 
            "evaluate_basis_all": [-1.6403508756000720e+00, 2.6403508739220403e+00], 
            "evaluate_basis_derivatives_0_0": [-1.6403508756000720e+00], 
            "evaluate_basis_derivatives_0_1": [2.9239765920873655e+00], 
            "evaluate_basis_derivatives_0_2": [0.0], 
            "evaluate_basis_derivatives_1_0": [2.6403508739220403e+00], 
            "evaluate_basis_derivatives_1_1": [-2.9239765920873655e+00], 
            "evaluate_basis_derivatives_1_2": [0.0], 
            "evaluate_basis_derivatives_all_0": [-1.6403508756000720e+00, 2.6403508739220403e+00], 
            "evaluate_basis_derivatives_all_1": [2.9239765920873655e+00, -2.9239765920873655e+00], 
            "evaluate_basis_derivatives_all_2": [0.0, 0.0], 
            "evaluate_dof_0": 9.0300000000000002e-01, 
            "evaluate_dof_1": 5.6100000000000005e-01, 
            "evaluate_dofs": [9.0300000000000002e-01, 5.6100000000000005e-01], 
            "interpolate_vertex_values": [9.0300000000000002e-01, 5.6100000000000005e-01], 
            "tabulate_dof_coordinates": [9.0300000000000002e-01, 5.6100000000000005e-01], 
            "num_sub_elements": 0, 
        },
        "dofmap_0": {
            "needs_mesh_entities_0": 1, 
            "needs_mesh_entities_1": 0, 
            "global_dimension": 10001, 
            "num_element_dofs": 2, 
            "num_facet_dofs": 1, 
            "num_entity_dofs_0": 1, 
            "num_entity_dofs_1": 0, 
            "tabulate_dofs": [0, 0], 
            "tabulate_facet_dofs_0": [0], 
            "tabulate_facet_dofs_1": [1], 
            "tabulate_entity_dofs_0_0": [0], 
            "tabulate_entity_dofs_0_1": [1], 
            "tabulate_entity_dofs_1_0": [], 
            "num_sub_dofmaps": 0, 
        },
        "dofmap_1": {
            "needs_mesh_entities_0": 1, 
            "needs_mesh_entities_1": 0, 
            "global_dimension": 10001, 
            "num_element_dofs": 2, 
            "num_facet_dofs": 1, 
            "num_entity_dofs_0": 1, 
            "num_entity_dofs_1": 0, 
            "tabulate_dofs": [0, 0], 
            "tabulate_facet_dofs_0": [0], 
            "tabulate_facet_dofs_1": [1], 
            "tabulate_entity_dofs_0_0": [0], 
            "tabulate_entity_dofs_0_1": [1], 
            "tabulate_entity_dofs_1_0": [], 
            "num_sub_dofmaps": 0, 
        },
        "default_cell_integral": 1, 
        "cell_integral": {
            "tabulate_tensor": [2.2800000113999998e-02, 2.8499999886000001e-02], 
        },
        "default_exterior_facet_integral": 0, 
        "default_interior_facet_integral": 0, 
        "default_vertex_integral": 0, 
    },
}
