{
    "finite_element_0": {
        "cell_shape": 1, 
        "space_dimension": 1, 
        "value_rank": 0, 
        "evaluate_basis:_0": [1.0000000000000000e+00], 
        "evaluate_basis_all": [1.0000000000000000e+00, 0.0, 0.0, 0.0], 
        "evaluate_basis_derivatives_0_0": [1.0000000000000000e+00], 
        "evaluate_basis_derivatives_0_1": [0.0, 0.0], 
        "evaluate_basis_derivatives_0_2": [0.0, 0.0, 0.0, 0.0], 
        "evaluate_basis_derivatives_all_0": [1.0000000000000000e+00], 
        "evaluate_basis_derivatives_all_1": [0.0, 0.0], 
        "evaluate_basis_derivatives_all_2": [0.0, 0.0, 0.0, 0.0], 
        "evaluate_dof_0": 5.1498232303368663e-01, 
        "evaluate_dofs": [5.1498232303368663e-01], 
        "interpolate_vertex_values": [5.1498232303368663e-01, 5.1498232303368663e-01, 5.1498232303368663e-01], 
        "tabulate_dof_coordinates": [8.1699999182999994e-01, 6.3033332703000000e-01], 
        "num_sub_elements": 0, 
    },
    "finite_element_1": {
        "cell_shape": 1, 
        "space_dimension": 3, 
        "value_rank": 1, 
        "value_dimension_0": 3, 
        "evaluate_basis:_0": [1.0000000000000000e+00, 0.0, 0.0], 
        "evaluate_basis:_1": [0.0, 1.0000000000000000e+00, 0.0], 
        "evaluate_basis:_2": [0.0, 0.0, 1.0000000000000000e+00], 
        "evaluate_basis_all": [1.0000000000000000e+00, 0.0, 0.0, 0.0, 1.0000000000000000e+00, 0.0, 0.0, 0.0, 1.0000000000000000e+00, 0.0, 0.0, 0.0, 0.0, 0.0, 0.0, 0.0, 0.0, 0.0, 0.0, 0.0, 0.0, 0.0, 0.0, 0.0, 0.0, 0.0, 0.0, 0.0, 0.0, 0.0, 0.0, 0.0, 0.0, 0.0, 0.0, 0.0], 
        "evaluate_basis_derivatives_0_0": [1.0000000000000000e+00, 0.0, 0.0], 
        "evaluate_basis_derivatives_0_1": [0.0, 0.0, 0.0, 0.0, 0.0, 0.0], 
        "evaluate_basis_derivatives_0_2": [0.0, 0.0, 0.0, 0.0, 0.0, 0.0, 0.0, 0.0, 0.0, 0.0, 0.0, 0.0], 
        "evaluate_basis_derivatives_1_0": [0.0, 1.0000000000000000e+00, 0.0], 
        "evaluate_basis_derivatives_1_1": [0.0, 0.0, 0.0, 0.0, 0.0, 0.0], 
        "evaluate_basis_derivatives_1_2": [0.0, 0.0, 0.0, 0.0, 0.0, 0.0, 0.0, 0.0, 0.0, 0.0, 0.0, 0.0], 
        "evaluate_basis_derivatives_2_0": [0.0, 0.0, 1.0000000000000000e+00], 
        "evaluate_basis_derivatives_2_1": [0.0, 0.0, 0.0, 0.0, 0.0, 0.0], 
        "evaluate_basis_derivatives_2_2": [0.0, 0.0, 0.0, 0.0, 0.0, 0.0, 0.0, 0.0, 0.0, 0.0, 0.0, 0.0], 
        "evaluate_basis_derivatives_all_0": [1.0000000000000000e+00, 0.0, 0.0, 0.0, 1.0000000000000000e+00, 0.0, 0.0, 0.0, 1.0000000000000000e+00], 
        "evaluate_basis_derivatives_all_1": [0.0, 0.0, 0.0, 0.0, 0.0, 0.0, 0.0, 0.0, 0.0, 0.0, 0.0, 0.0, 0.0, 0.0, 0.0, 0.0, 0.0, 0.0], 
        "evaluate_basis_derivatives_all_2": [0.0, 0.0, 0.0, 0.0, 0.0, 0.0, 0.0, 0.0, 0.0, 0.0, 0.0, 0.0, 0.0, 0.0, 0.0, 0.0, 0.0, 0.0, 0.0, 0.0, 0.0, 0.0, 0.0, 0.0, 0.0, 0.0, 0.0, 0.0, 0.0, 0.0, 0.0, 0.0, 0.0, 0.0, 0.0, 0.0], 
        "evaluate_dof_0": 5.1498232303368663e-01, 
        "evaluate_dof_1": 2.0599292921347465e+00, 
        "evaluate_dof_2": 4.6348409073031798e+00, 
        "evaluate_dofs": [5.1498232303368663e-01, 2.0599292921347465e+00, 4.6348409073031798e+00], 
        "interpolate_vertex_values": [5.1498232303368663e-01, 2.0599292921347465e+00, 4.6348409073031798e+00, 5.1498232303368663e-01, 2.0599292921347465e+00, 4.6348409073031798e+00, 5.1498232303368663e-01, 2.0599292921347465e+00, 4.6348409073031798e+00], 
        "tabulate_dof_coordinates": [8.1699999182999994e-01, 6.3033332703000000e-01, 8.1699999182999994e-01, 6.3033332703000000e-01, 8.1699999182999994e-01, 6.3033332703000000e-01], 
        "num_sub_elements": 3, 
        "finite_element_0": {
            "cell_shape": 1, 
            "space_dimension": 1, 
            "value_rank": 0, 
            "evaluate_basis:_0": [1.0000000000000000e+00], 
            "evaluate_basis_all": [1.0000000000000000e+00, 0.0, 0.0, 0.0], 
            "evaluate_basis_derivatives_0_0": [1.0000000000000000e+00], 
            "evaluate_basis_derivatives_0_1": [0.0, 0.0], 
            "evaluate_basis_derivatives_0_2": [0.0, 0.0, 0.0, 0.0], 
            "evaluate_basis_derivatives_all_0": [1.0000000000000000e+00], 
            "evaluate_basis_derivatives_all_1": [0.0, 0.0], 
            "evaluate_basis_derivatives_all_2": [0.0, 0.0, 0.0, 0.0], 
            "evaluate_dof_0": 5.1498232303368663e-01, 
            "evaluate_dofs": [5.1498232303368663e-01], 
            "interpolate_vertex_values": [5.1498232303368663e-01, 5.1498232303368663e-01, 5.1498232303368663e-01], 
            "tabulate_dof_coordinates": [8.1699999182999994e-01, 6.3033332703000000e-01], 
            "num_sub_elements": 0, 
        },
        "finite_element_1": {
            "cell_shape": 1, 
            "space_dimension": 1, 
            "value_rank": 0, 
            "evaluate_basis:_0": [1.0000000000000000e+00], 
            "evaluate_basis_all": [1.0000000000000000e+00, 0.0, 0.0, 0.0], 
            "evaluate_basis_derivatives_0_0": [1.0000000000000000e+00], 
            "evaluate_basis_derivatives_0_1": [0.0, 0.0], 
            "evaluate_basis_derivatives_0_2": [0.0, 0.0, 0.0, 0.0], 
            "evaluate_basis_derivatives_all_0": [1.0000000000000000e+00], 
            "evaluate_basis_derivatives_all_1": [0.0, 0.0], 
            "evaluate_basis_derivatives_all_2": [0.0, 0.0, 0.0, 0.0], 
            "evaluate_dof_0": 5.1498232303368663e-01, 
            "evaluate_dofs": [5.1498232303368663e-01], 
            "interpolate_vertex_values": [5.1498232303368663e-01, 5.1498232303368663e-01, 5.1498232303368663e-01], 
            "tabulate_dof_coordinates": [8.1699999182999994e-01, 6.3033332703000000e-01], 
            "num_sub_elements": 0, 
        },
        "finite_element_2": {
            "cell_shape": 1, 
            "space_dimension": 1, 
            "value_rank": 0, 
            "evaluate_basis:_0": [1.0000000000000000e+00], 
            "evaluate_basis_all": [1.0000000000000000e+00, 0.0, 0.0, 0.0], 
            "evaluate_basis_derivatives_0_0": [1.0000000000000000e+00], 
            "evaluate_basis_derivatives_0_1": [0.0, 0.0], 
            "evaluate_basis_derivatives_0_2": [0.0, 0.0, 0.0, 0.0], 
            "evaluate_basis_derivatives_all_0": [1.0000000000000000e+00], 
            "evaluate_basis_derivatives_all_1": [0.0, 0.0], 
            "evaluate_basis_derivatives_all_2": [0.0, 0.0, 0.0, 0.0], 
            "evaluate_dof_0": 5.1498232303368663e-01, 
            "evaluate_dofs": [5.1498232303368663e-01], 
            "interpolate_vertex_values": [5.1498232303368663e-01, 5.1498232303368663e-01, 5.1498232303368663e-01], 
            "tabulate_dof_coordinates": [8.1699999182999994e-01, 6.3033332703000000e-01], 
            "num_sub_elements": 0, 
        },
    },
}
