{
    "finite_element_0": {
        "cell_shape": 0, 
        "space_dimension": 2, 
        "value_rank": 0, 
        "evaluate_basis:_0": [-4.6157765178959309e-01], 
        "evaluate_basis:_1": [1.4615776501115616e+00], 
        "evaluate_basis_all": [-4.6157765178959309e-01, 1.4615776501115616e+00, 0.0, 0.0, 0.0, 0.0, 0.0, 0.0, 0.0, 0.0, 0.0, 0.0, 0.0, 0.0, 0.0, 0.0, 0.0, 0.0], 
        "evaluate_basis_derivatives_0_0": [-4.6157765178959309e-01], 
        "evaluate_basis_derivatives_0_1": [7.7759790029673015e-01, -9.6858685826434809e-01, -8.5490295471219435e-01], 
        "evaluate_basis_derivatives_0_2": [0.0, 0.0, 0.0, 0.0, 0.0, 0.0, 0.0, 0.0, 0.0], 
        "evaluate_basis_derivatives_1_0": [1.4615776501115616e+00], 
        "evaluate_basis_derivatives_1_1": [-7.7759790029673015e-01, 9.6858685826434809e-01, 8.5490295471219435e-01], 
        "evaluate_basis_derivatives_1_2": [0.0, 0.0, 0.0, 0.0, 0.0, 0.0, 0.0, 0.0, 0.0], 
        "evaluate_basis_derivatives_all_0": [-4.6157765178959309e-01, 1.4615776501115616e+00], 
        "evaluate_basis_derivatives_all_1": [7.7759790029673015e-01, -9.6858685826434809e-01, -8.5490295471219435e-01, -7.7759790029673015e-01, 9.6858685826434809e-01, 8.5490295471219435e-01], 
        "evaluate_basis_derivatives_all_2": [0.0, 0.0, 0.0, 0.0, 0.0, 0.0, 0.0, 0.0, 0.0, 0.0, 0.0, 0.0, 0.0, 0.0, 0.0, 0.0, 0.0, 0.0], 
        "evaluate_dof_0": 1.4072081100000003e-01, 
        "evaluate_dof_1": 3.5842907099999999e-01, 
        "evaluate_dofs": [1.4072081100000003e-01, 3.5842907099999999e-01], 
        "interpolate_vertex_values": [1.4072081100000003e-01, 3.5842907099999999e-01], 
        "tabulate_dof_coordinates": [9.0300000000000002e-01, 3.4100000000000003e-01, 4.5700000000000002e-01, 5.6100000000000005e-01, 7.6700000000000002e-01, 8.3299999999999996e-01], 
        "num_sub_elements": 0, 
    },
    "finite_element_1": {
        "cell_shape": 0, 
        "space_dimension": 6, 
        "value_rank": 1, 
        "value_dimension_0": 3, 
        "evaluate_basis:_0": [-4.6157765178959309e-01, 0.0, 0.0], 
        "evaluate_basis:_1": [1.4615776501115616e+00, 0.0, 0.0], 
        "evaluate_basis:_2": [0.0, -4.6157765178959309e-01, 0.0], 
        "evaluate_basis:_3": [0.0, 1.4615776501115616e+00, 0.0], 
        "evaluate_basis:_4": [0.0, 0.0, -4.6157765178959309e-01], 
        "evaluate_basis:_5": [0.0, 0.0, 1.4615776501115616e+00], 
        "evaluate_basis_all": [-4.6157765178959309e-01, 0.0, 0.0, 1.4615776501115616e+00, 0.0, 0.0, 0.0, -4.6157765178959309e-01, 0.0, 0.0, 1.4615776501115616e+00, 0.0, 0.0, 0.0, -4.6157765178959309e-01, 0.0, 0.0, 1.4615776501115616e+00, 0.0, 0.0, 0.0, 0.0, 0.0, 0.0, 0.0, 0.0, 0.0, 0.0, 0.0, 0.0, 0.0, 0.0, 0.0, 0.0, 0.0, 0.0, 0.0, 0.0, 0.0, 0.0, 0.0, 0.0, 0.0, 0.0, 0.0, 0.0, 0.0, 0.0, 0.0, 0.0, 0.0, 0.0, 0.0, 0.0, 0.0, 0.0, 0.0, 0.0, 0.0, 0.0, 0.0, 0.0, 0.0, 0.0, 0.0, 0.0, 0.0, 0.0, 0.0, 0.0, 0.0, 0.0, 0.0, 0.0, 0.0, 0.0, 0.0, 0.0, 0.0, 0.0, 0.0, 0.0, 0.0, 0.0, 0.0, 0.0, 0.0, 0.0, 0.0, 0.0, 0.0, 0.0, 0.0, 0.0, 0.0, 0.0, 0.0, 0.0, 0.0, 0.0, 0.0, 0.0, 0.0, 0.0, 0.0, 0.0, 0.0, 0.0, 0.0, 0.0, 0.0, 0.0, 0.0, 0.0, 0.0, 0.0, 0.0, 0.0, 0.0, 0.0, 0.0, 0.0, 0.0, 0.0, 0.0, 0.0, 0.0, 0.0, 0.0, 0.0, 0.0, 0.0, 0.0, 0.0, 0.0, 0.0, 0.0, 0.0, 0.0, 0.0, 0.0, 0.0, 0.0, 0.0, 0.0, 0.0, 0.0, 0.0, 0.0, 0.0, 0.0, 0.0, 0.0, 0.0, 0.0, 0.0, 0.0, 0.0, 0.0, 0.0, 0.0, 0.0], 
        "evaluate_basis_derivatives_0_0": [-4.6157765178959309e-01, 0.0, 0.0], 
        "evaluate_basis_derivatives_0_1": [7.7759790029673015e-01, -9.6858685826434809e-01, -8.5490295471219435e-01, 0.0, 0.0, 0.0, 0.0, 0.0, 0.0], 
        "evaluate_basis_derivatives_0_2": [0.0, 0.0, 0.0, 0.0, 0.0, 0.0, 0.0, 0.0, 0.0, 0.0, 0.0, 0.0, 0.0, 0.0, 0.0, 0.0, 0.0, 0.0, 0.0, 0.0, 0.0, 0.0, 0.0, 0.0, 0.0, 0.0, 0.0], 
        "evaluate_basis_derivatives_1_0": [1.4615776501115616e+00, 0.0, 0.0], 
        "evaluate_basis_derivatives_1_1": [-7.7759790029673015e-01, 9.6858685826434809e-01, 8.5490295471219435e-01, 0.0, 0.0, 0.0, 0.0, 0.0, 0.0], 
        "evaluate_basis_derivatives_1_2": [0.0, 0.0, 0.0, 0.0, 0.0, 0.0, 0.0, 0.0, 0.0, 0.0, 0.0, 0.0, 0.0, 0.0, 0.0, 0.0, 0.0, 0.0, 0.0, 0.0, 0.0, 0.0, 0.0, 0.0, 0.0, 0.0, 0.0], 
        "evaluate_basis_derivatives_2_0": [0.0, -4.6157765178959309e-01, 0.0], 
        "evaluate_basis_derivatives_2_1": [0.0, 0.0, 0.0, 7.7759790029673015e-01, -9.6858685826434809e-01, -8.5490295471219435e-01, 0.0, 0.0, 0.0], 
        "evaluate_basis_derivatives_2_2": [0.0, 0.0, 0.0, 0.0, 0.0, 0.0, 0.0, 0.0, 0.0, 0.0, 0.0, 0.0, 0.0, 0.0, 0.0, 0.0, 0.0, 0.0, 0.0, 0.0, 0.0, 0.0, 0.0, 0.0, 0.0, 0.0, 0.0], 
        "evaluate_basis_derivatives_3_0": [0.0, 1.4615776501115616e+00, 0.0], 
        "evaluate_basis_derivatives_3_1": [0.0, 0.0, 0.0, -7.7759790029673015e-01, 9.6858685826434809e-01, 8.5490295471219435e-01, 0.0, 0.0, 0.0], 
        "evaluate_basis_derivatives_3_2": [0.0, 0.0, 0.0, 0.0, 0.0, 0.0, 0.0, 0.0, 0.0, 0.0, 0.0, 0.0, 0.0, 0.0, 0.0, 0.0, 0.0, 0.0, 0.0, 0.0, 0.0, 0.0, 0.0, 0.0, 0.0, 0.0, 0.0], 
        "evaluate_basis_derivatives_4_0": [0.0, 0.0, -4.6157765178959309e-01], 
        "evaluate_basis_derivatives_4_1": [0.0, 0.0, 0.0, 0.0, 0.0, 0.0, 7.7759790029673015e-01, -9.6858685826434809e-01, -8.5490295471219435e-01], 
        "evaluate_basis_derivatives_4_2": [0.0, 0.0, 0.0, 0.0, 0.0, 0.0, 0.0, 0.0, 0.0, 0.0, 0.0, 0.0, 0.0, 0.0, 0.0, 0.0, 0.0, 0.0, 0.0, 0.0, 0.0, 0.0, 0.0, 0.0, 0.0, 0.0, 0.0], 
        "evaluate_basis_derivatives_5_0": [0.0, 0.0, 1.4615776501115616e+00], 
        "evaluate_basis_derivatives_5_1": [0.0, 0.0, 0.0, 0.0, 0.0, 0.0, -7.7759790029673015e-01, 9.6858685826434809e-01, 8.5490295471219435e-01], 
        "evaluate_basis_derivatives_5_2": [0.0, 0.0, 0.0, 0.0, 0.0, 0.0, 0.0, 0.0, 0.0, 0.0, 0.0, 0.0, 0.0, 0.0, 0.0, 0.0, 0.0, 0.0, 0.0, 0.0, 0.0, 0.0, 0.0, 0.0, 0.0, 0.0, 0.0], 
        "evaluate_basis_derivatives_all_0": [-4.6157765178959309e-01, 0.0, 0.0, 1.4615776501115616e+00, 0.0, 0.0, 0.0, -4.6157765178959309e-01, 0.0, 0.0, 1.4615776501115616e+00, 0.0, 0.0, 0.0, -4.6157765178959309e-01, 0.0, 0.0, 1.4615776501115616e+00], 
        "evaluate_basis_derivatives_all_1": [7.7759790029673015e-01, -9.6858685826434809e-01, -8.5490295471219435e-01, 0.0, 0.0, 0.0, 0.0, 0.0, 0.0, -7.7759790029673015e-01, 9.6858685826434809e-01, 8.5490295471219435e-01, 0.0, 0.0, 0.0, 0.0, 0.0, 0.0, 0.0, 0.0, 0.0, 7.7759790029673015e-01, -9.6858685826434809e-01, -8.5490295471219435e-01, 0.0, 0.0, 0.0, 0.0, 0.0, 0.0, -7.7759790029673015e-01, 9.6858685826434809e-01, 8.5490295471219435e-01, 0.0, 0.0, 0.0, 0.0, 0.0, 0.0, 0.0, 0.0, 0.0, 7.7759790029673015e-01, -9.6858685826434809e-01, -8.5490295471219435e-01, 0.0, 0.0, 0.0, 0.0, 0.0, 0.0, -7.7759790029673015e-01, 9.6858685826434809e-01, 8.5490295471219435e-01], 
        "evaluate_basis_derivatives_all_2": [0.0, 0.0, 0.0, 0.0, 0.0, 0.0, 0.0, 0.0, 0.0, 0.0, 0.0, 0.0, 0.0, 0.0, 0.0, 0.0, 0.0, 0.0, 0.0, 0.0, 0.0, 0.0, 0.0, 0.0, 0.0, 0.0, 0.0, 0.0, 0.0, 0.0, 0.0, 0.0, 0.0, 0.0, 0.0, 0.0, 0.0, 0.0, 0.0, 0.0, 0.0, 0.0, 0.0, 0.0, 0.0, 0.0, 0.0, 0.0, 0.0, 0.0, 0.0, 0.0, 0.0, 0.0, 0.0, 0.0, 0.0, 0.0, 0.0, 0.0, 0.0, 0.0, 0.0, 0.0, 0.0, 0.0, 0.0, 0.0, 0.0, 0.0, 0.0, 0.0, 0.0, 0.0, 0.0, 0.0, 0.0, 0.0, 0.0, 0.0, 0.0, 0.0, 0.0, 0.0, 0.0, 0.0, 0.0, 0.0, 0.0, 0.0, 0.0, 0.0, 0.0, 0.0, 0.0, 0.0, 0.0, 0.0, 0.0, 0.0, 0.0, 0.0, 0.0, 0.0, 0.0, 0.0, 0.0, 0.0, 0.0, 0.0, 0.0, 0.0, 0.0, 0.0, 0.0, 0.0, 0.0, 0.0, 0.0, 0.0, 0.0, 0.0, 0.0, 0.0, 0.0, 0.0, 0.0, 0.0, 0.0, 0.0, 0.0, 0.0, 0.0, 0.0, 0.0, 0.0, 0.0, 0.0, 0.0, 0.0, 0.0, 0.0, 0.0, 0.0, 0.0, 0.0, 0.0, 0.0, 0.0, 0.0, 0.0, 0.0, 0.0, 0.0, 0.0, 0.0, 0.0, 0.0, 0.0, 0.0, 0.0, 0.0], 
        "evaluate_dof_0": 1.4072081100000003e-01, 
        "evaluate_dof_1": 3.5842907099999999e-01, 
        "evaluate_dof_2": 1.1257664880000002e+00, 
        "evaluate_dof_3": 2.8674325679999999e+00, 
        "evaluate_dof_4": 3.7994618970000009e+00, 
        "evaluate_dof_5": 9.6775849170000008e+00, 
        "evaluate_dofs": [1.4072081100000003e-01, 3.5842907099999999e-01, 1.1257664880000002e+00, 2.8674325679999999e+00, 3.7994618970000009e+00, 9.6775849170000008e+00], 
        "interpolate_vertex_values": [1.4072081100000003e-01, 1.1257664880000002e+00, 3.7994618970000009e+00, 3.5842907099999999e-01, 2.8674325679999999e+00, 9.6775849170000008e+00], 
        "tabulate_dof_coordinates": [9.0300000000000002e-01, 3.4100000000000003e-01, 4.5700000000000002e-01, 5.6100000000000005e-01, 7.6700000000000002e-01, 8.3299999999999996e-01, 9.0300000000000002e-01, 3.4100000000000003e-01, 4.5700000000000002e-01, 5.6100000000000005e-01, 7.6700000000000002e-01, 8.3299999999999996e-01, 9.0300000000000002e-01, 3.4100000000000003e-01, 4.5700000000000002e-01, 5.6100000000000005e-01, 7.6700000000000002e-01, 8.3299999999999996e-01], 
        "num_sub_elements": 3, 
        "finite_element_0": {
            "cell_shape": 0, 
            "space_dimension": 2, 
            "value_rank": 0, 
            "evaluate_basis:_0": [-4.6157765178959309e-01], 
            "evaluate_basis:_1": [1.4615776501115616e+00], 
            "evaluate_basis_all": [-4.6157765178959309e-01, 1.4615776501115616e+00, 0.0, 0.0, 0.0, 0.0, 0.0, 0.0, 0.0, 0.0, 0.0, 0.0, 0.0, 0.0, 0.0, 0.0, 0.0, 0.0], 
            "evaluate_basis_derivatives_0_0": [-4.6157765178959309e-01], 
            "evaluate_basis_derivatives_0_1": [7.7759790029673015e-01, -9.6858685826434809e-01, -8.5490295471219435e-01], 
            "evaluate_basis_derivatives_0_2": [0.0, 0.0, 0.0, 0.0, 0.0, 0.0, 0.0, 0.0, 0.0], 
            "evaluate_basis_derivatives_1_0": [1.4615776501115616e+00], 
            "evaluate_basis_derivatives_1_1": [-7.7759790029673015e-01, 9.6858685826434809e-01, 8.5490295471219435e-01], 
            "evaluate_basis_derivatives_1_2": [0.0, 0.0, 0.0, 0.0, 0.0, 0.0, 0.0, 0.0, 0.0], 
            "evaluate_basis_derivatives_all_0": [-4.6157765178959309e-01, 1.4615776501115616e+00], 
            "evaluate_basis_derivatives_all_1": [7.7759790029673015e-01, -9.6858685826434809e-01, -8.5490295471219435e-01, -7.7759790029673015e-01, 9.6858685826434809e-01, 8.5490295471219435e-01], 
            "evaluate_basis_derivatives_all_2": [0.0, 0.0, 0.0, 0.0, 0.0, 0.0, 0.0, 0.0, 0.0, 0.0, 0.0, 0.0, 0.0, 0.0, 0.0, 0.0, 0.0, 0.0], 
            "evaluate_dof_0": 1.4072081100000003e-01, 
            "evaluate_dof_1": 3.5842907099999999e-01, 
            "evaluate_dofs": [1.4072081100000003e-01, 3.5842907099999999e-01], 
            "interpolate_vertex_values": [1.4072081100000003e-01, 3.5842907099999999e-01], 
            "tabulate_dof_coordinates": [9.0300000000000002e-01, 3.4100000000000003e-01, 4.5700000000000002e-01, 5.6100000000000005e-01, 7.6700000000000002e-01, 8.3299999999999996e-01], 
            "num_sub_elements": 0, 
        },
        "finite_element_1": {
            "cell_shape": 0, 
            "space_dimension": 2, 
            "value_rank": 0, 
            "evaluate_basis:_0": [-4.6157765178959309e-01], 
            "evaluate_basis:_1": [1.4615776501115616e+00], 
            "evaluate_basis_all": [-4.6157765178959309e-01, 1.4615776501115616e+00, 0.0, 0.0, 0.0, 0.0, 0.0, 0.0, 0.0, 0.0, 0.0, 0.0, 0.0, 0.0, 0.0, 0.0, 0.0, 0.0], 
            "evaluate_basis_derivatives_0_0": [-4.6157765178959309e-01], 
            "evaluate_basis_derivatives_0_1": [7.7759790029673015e-01, -9.6858685826434809e-01, -8.5490295471219435e-01], 
            "evaluate_basis_derivatives_0_2": [0.0, 0.0, 0.0, 0.0, 0.0, 0.0, 0.0, 0.0, 0.0], 
            "evaluate_basis_derivatives_1_0": [1.4615776501115616e+00], 
            "evaluate_basis_derivatives_1_1": [-7.7759790029673015e-01, 9.6858685826434809e-01, 8.5490295471219435e-01], 
            "evaluate_basis_derivatives_1_2": [0.0, 0.0, 0.0, 0.0, 0.0, 0.0, 0.0, 0.0, 0.0], 
            "evaluate_basis_derivatives_all_0": [-4.6157765178959309e-01, 1.4615776501115616e+00], 
            "evaluate_basis_derivatives_all_1": [7.7759790029673015e-01, -9.6858685826434809e-01, -8.5490295471219435e-01, -7.7759790029673015e-01, 9.6858685826434809e-01, 8.5490295471219435e-01], 
            "evaluate_basis_derivatives_all_2": [0.0, 0.0, 0.0, 0.0, 0.0, 0.0, 0.0, 0.0, 0.0, 0.0, 0.0, 0.0, 0.0, 0.0, 0.0, 0.0, 0.0, 0.0], 
            "evaluate_dof_0": 1.4072081100000003e-01, 
            "evaluate_dof_1": 3.5842907099999999e-01, 
            "evaluate_dofs": [1.4072081100000003e-01, 3.5842907099999999e-01], 
            "interpolate_vertex_values": [1.4072081100000003e-01, 3.5842907099999999e-01], 
            "tabulate_dof_coordinates": [9.0300000000000002e-01, 3.4100000000000003e-01, 4.5700000000000002e-01, 5.6100000000000005e-01, 7.6700000000000002e-01, 8.3299999999999996e-01], 
            "num_sub_elements": 0, 
        },
        "finite_element_2": {
            "cell_shape": 0, 
            "space_dimension": 2, 
            "value_rank": 0, 
            "evaluate_basis:_0": [-4.6157765178959309e-01], 
            "evaluate_basis:_1": [1.4615776501115616e+00], 
            "evaluate_basis_all": [-4.6157765178959309e-01, 1.4615776501115616e+00, 0.0, 0.0, 0.0, 0.0, 0.0, 0.0, 0.0, 0.0, 0.0, 0.0, 0.0, 0.0, 0.0, 0.0, 0.0, 0.0], 
            "evaluate_basis_derivatives_0_0": [-4.6157765178959309e-01], 
            "evaluate_basis_derivatives_0_1": [7.7759790029673015e-01, -9.6858685826434809e-01, -8.5490295471219435e-01], 
            "evaluate_basis_derivatives_0_2": [0.0, 0.0, 0.0, 0.0, 0.0, 0.0, 0.0, 0.0, 0.0], 
            "evaluate_basis_derivatives_1_0": [1.4615776501115616e+00], 
            "evaluate_basis_derivatives_1_1": [-7.7759790029673015e-01, 9.6858685826434809e-01, 8.5490295471219435e-01], 
            "evaluate_basis_derivatives_1_2": [0.0, 0.0, 0.0, 0.0, 0.0, 0.0, 0.0, 0.0, 0.0], 
            "evaluate_basis_derivatives_all_0": [-4.6157765178959309e-01, 1.4615776501115616e+00], 
            "evaluate_basis_derivatives_all_1": [7.7759790029673015e-01, -9.6858685826434809e-01, -8.5490295471219435e-01, -7.7759790029673015e-01, 9.6858685826434809e-01, 8.5490295471219435e-01], 
            "evaluate_basis_derivatives_all_2": [0.0, 0.0, 0.0, 0.0, 0.0, 0.0, 0.0, 0.0, 0.0, 0.0, 0.0, 0.0, 0.0, 0.0, 0.0, 0.0, 0.0, 0.0], 
            "evaluate_dof_0": 1.4072081100000003e-01, 
            "evaluate_dof_1": 3.5842907099999999e-01, 
            "evaluate_dofs": [1.4072081100000003e-01, 3.5842907099999999e-01], 
            "interpolate_vertex_values": [1.4072081100000003e-01, 3.5842907099999999e-01], 
            "tabulate_dof_coordinates": [9.0300000000000002e-01, 3.4100000000000003e-01, 4.5700000000000002e-01, 5.6100000000000005e-01, 7.6700000000000002e-01, 8.3299999999999996e-01], 
            "num_sub_elements": 0, 
        },
    },
}
