{
    "form_0": {
        "rank": 2, 
        "num_coefficients": 1, 
        "has_cell_integrals": 0, 
        "has_exterior_facet_integrals": 1, 
        "has_interior_facet_integrals": 1, 
        "has_vertex_integrals": 0, 
        "max_cell_subdomain_id": 0, 
        "max_exterior_facet_subdomain_id": 0, 
        "max_interior_facet_subdomain_id": 0, 
        "max_vertex_subdomain_id": 0, 
        "finite_element_0": {
            "cell_shape": 1, 
            "space_dimension": 3, 
            "value_rank": 0, 
            "evaluate_basis:_0": [1.4718852622922429e+00], 
            "evaluate_basis:_1": [2.0266705413493233e+00], 
            "evaluate_basis:_2": [-2.4985557203629258e+00], 
            "evaluate_basis_all": [1.4718852622922429e+00, 2.0266705413493233e+00, -2.4985557203629258e+00, 0.0, 0.0, 0.0, 0.0, 0.0, 0.0, 0.0, 0.0, 0.0], 
            "evaluate_basis_derivatives_0_0": [1.4718852622922429e+00], 
            "evaluate_basis_derivatives_0_1": [8.5585277568607676e-02, -2.2787085025842555e+00], 
            "evaluate_basis_derivatives_0_2": [0.0, 0.0, 0.0, 0.0], 
            "evaluate_basis_derivatives_1_0": [2.0266705413493233e+00], 
            "evaluate_basis_derivatives_1_1": [-2.3642938479375970e+00, 4.4932274890774304e-01], 
            "evaluate_basis_derivatives_1_2": [0.0, 0.0, 0.0, 0.0], 
            "evaluate_basis_derivatives_2_0": [-2.4985557203629258e+00], 
            "evaluate_basis_derivatives_2_1": [2.2787085020077340e+00, 1.8293856987949413e+00], 
            "evaluate_basis_derivatives_2_2": [0.0, 0.0, 0.0, 0.0], 
            "evaluate_basis_derivatives_all_0": [1.4718852622922429e+00, 2.0266705413493233e+00, -2.4985557203629258e+00], 
            "evaluate_basis_derivatives_all_1": [8.5585277568607676e-02, -2.2787085025842555e+00, -2.3642938479375970e+00, 4.4932274890774304e-01, 2.2787085020077340e+00, 1.8293856987949413e+00], 
            "evaluate_basis_derivatives_all_2": [0.0, 0.0, 0.0, 0.0, 0.0, 0.0, 0.0, 0.0, 0.0, 0.0, 0.0, 0.0], 
            "evaluate_dof_0": 3.0792300000000006e-01, 
            "evaluate_dof_1": 4.3028700000000003e-01, 
            "evaluate_dof_2": 7.7282099999999998e-01, 
            "evaluate_dofs": [3.0792300000000006e-01, 4.3028700000000003e-01, 7.7282099999999998e-01], 
            "interpolate_vertex_values": [3.0792300000000006e-01, 4.3028700000000003e-01, 7.7282099999999998e-01], 
            "tabulate_dof_coordinates": [9.0300000000000002e-01, 3.4100000000000003e-01, 5.6100000000000005e-01, 7.6700000000000002e-01, 9.8699999999999999e-01, 7.8300000000000003e-01], 
            "num_sub_elements": 0, 
        },
        "finite_element_1": {
            "cell_shape": 1, 
            "space_dimension": 3, 
            "value_rank": 0, 
            "evaluate_basis:_0": [1.4718852622922429e+00], 
            "evaluate_basis:_1": [2.0266705413493233e+00], 
            "evaluate_basis:_2": [-2.4985557203629258e+00], 
            "evaluate_basis_all": [1.4718852622922429e+00, 2.0266705413493233e+00, -2.4985557203629258e+00, 0.0, 0.0, 0.0, 0.0, 0.0, 0.0, 0.0, 0.0, 0.0], 
            "evaluate_basis_derivatives_0_0": [1.4718852622922429e+00], 
            "evaluate_basis_derivatives_0_1": [8.5585277568607676e-02, -2.2787085025842555e+00], 
            "evaluate_basis_derivatives_0_2": [0.0, 0.0, 0.0, 0.0], 
            "evaluate_basis_derivatives_1_0": [2.0266705413493233e+00], 
            "evaluate_basis_derivatives_1_1": [-2.3642938479375970e+00, 4.4932274890774304e-01], 
            "evaluate_basis_derivatives_1_2": [0.0, 0.0, 0.0, 0.0], 
            "evaluate_basis_derivatives_2_0": [-2.4985557203629258e+00], 
            "evaluate_basis_derivatives_2_1": [2.2787085020077340e+00, 1.8293856987949413e+00], 
            "evaluate_basis_derivatives_2_2": [0.0, 0.0, 0.0, 0.0], 
            "evaluate_basis_derivatives_all_0": [1.4718852622922429e+00, 2.0266705413493233e+00, -2.4985557203629258e+00], 
            "evaluate_basis_derivatives_all_1": [8.5585277568607676e-02, -2.2787085025842555e+00, -2.3642938479375970e+00, 4.4932274890774304e-01, 2.2787085020077340e+00, 1.8293856987949413e+00], 
            "evaluate_basis_derivatives_all_2": [0.0, 0.0, 0.0, 0.0, 0.0, 0.0, 0.0, 0.0, 0.0, 0.0, 0.0, 0.0], 
            "evaluate_dof_0": 3.0792300000000006e-01, 
            "evaluate_dof_1": 4.3028700000000003e-01, 
            "evaluate_dof_2": 7.7282099999999998e-01, 
            "evaluate_dofs": [3.0792300000000006e-01, 4.3028700000000003e-01, 7.7282099999999998e-01], 
            "interpolate_vertex_values": [3.0792300000000006e-01, 4.3028700000000003e-01, 7.7282099999999998e-01], 
            "tabulate_dof_coordinates": [9.0300000000000002e-01, 3.4100000000000003e-01, 5.6100000000000005e-01, 7.6700000000000002e-01, 9.8699999999999999e-01, 7.8300000000000003e-01], 
            "num_sub_elements": 0, 
        },
        "finite_element_2": {
            "cell_shape": 1, 
            "space_dimension": 2, 
            "value_rank": 1, 
            "value_dimension_0": 2, 
            "evaluate_basis:_0": [1.0000000000000000e+00, 0.0], 
            "evaluate_basis:_1": [0.0, 1.0000000000000000e+00], 
            "evaluate_basis_all": [1.0000000000000000e+00, 0.0, 0.0, 1.0000000000000000e+00, 0.0, 0.0, 0.0, 0.0, 0.0, 0.0, 0.0, 0.0, 0.0, 0.0, 0.0, 0.0], 
            "evaluate_basis_derivatives_0_0": [1.0000000000000000e+00, 0.0], 
            "evaluate_basis_derivatives_0_1": [0.0, 0.0, 0.0, 0.0], 
            "evaluate_basis_derivatives_0_2": [0.0, 0.0, 0.0, 0.0, 0.0, 0.0, 0.0, 0.0], 
            "evaluate_basis_derivatives_1_0": [0.0, 1.0000000000000000e+00], 
            "evaluate_basis_derivatives_1_1": [0.0, 0.0, 0.0, 0.0], 
            "evaluate_basis_derivatives_1_2": [0.0, 0.0, 0.0, 0.0, 0.0, 0.0, 0.0, 0.0], 
            "evaluate_basis_derivatives_all_0": [1.0000000000000000e+00, 0.0, 0.0, 1.0000000000000000e+00], 
            "evaluate_basis_derivatives_all_1": [0.0, 0.0, 0.0, 0.0, 0.0, 0.0, 0.0, 0.0], 
            "evaluate_basis_derivatives_all_2": [0.0, 0.0, 0.0, 0.0, 0.0, 0.0, 0.0, 0.0, 0.0, 0.0, 0.0, 0.0, 0.0, 0.0, 0.0, 0.0], 
            "evaluate_dof_0": 5.1498232303368663e-01, 
            "evaluate_dof_1": 2.0599292921347465e+00, 
            "evaluate_dofs": [5.1498232303368663e-01, 2.0599292921347465e+00], 
            "interpolate_vertex_values": [5.1498232303368663e-01, 2.0599292921347465e+00, 5.1498232303368663e-01, 2.0599292921347465e+00, 5.1498232303368663e-01, 2.0599292921347465e+00], 
            "tabulate_dof_coordinates": [8.1699999182999994e-01, 6.3033332703000000e-01, 8.1699999182999994e-01, 6.3033332703000000e-01], 
            "num_sub_elements": 2, 
            "finite_element_0": {
                "cell_shape": 1, 
                "space_dimension": 1, 
                "value_rank": 0, 
                "evaluate_basis:_0": [1.0000000000000000e+00], 
                "evaluate_basis_all": [1.0000000000000000e+00, 0.0, 0.0, 0.0], 
                "evaluate_basis_derivatives_0_0": [1.0000000000000000e+00], 
                "evaluate_basis_derivatives_0_1": [0.0, 0.0], 
                "evaluate_basis_derivatives_0_2": [0.0, 0.0, 0.0, 0.0], 
                "evaluate_basis_derivatives_all_0": [1.0000000000000000e+00], 
                "evaluate_basis_derivatives_all_1": [0.0, 0.0], 
                "evaluate_basis_derivatives_all_2": [0.0, 0.0, 0.0, 0.0], 
                "evaluate_dof_0": 5.1498232303368663e-01, 
                "evaluate_dofs": [5.1498232303368663e-01], 
                "interpolate_vertex_values": [5.1498232303368663e-01, 5.1498232303368663e-01, 5.1498232303368663e-01], 
                "tabulate_dof_coordinates": [8.1699999182999994e-01, 6.3033332703000000e-01], 
                "num_sub_elements": 0, 
            },
            "finite_element_1": {
                "cell_shape": 1, 
                "space_dimension": 1, 
                "value_rank": 0, 
                "evaluate_basis:_0": [1.0000000000000000e+00], 
                "evaluate_basis_all": [1.0000000000000000e+00, 0.0, 0.0, 0.0], 
                "evaluate_basis_derivatives_0_0": [1.0000000000000000e+00], 
                "evaluate_basis_derivatives_0_1": [0.0, 0.0], 
                "evaluate_basis_derivatives_0_2": [0.0, 0.0, 0.0, 0.0], 
                "evaluate_basis_derivatives_all_0": [1.0000000000000000e+00], 
                "evaluate_basis_derivatives_all_1": [0.0, 0.0], 
                "evaluate_basis_derivatives_all_2": [0.0, 0.0, 0.0, 0.0], 
                "evaluate_dof_0": 5.1498232303368663e-01, 
                "evaluate_dofs": [5.1498232303368663e-01], 
                "interpolate_vertex_values": [5.1498232303368663e-01, 5.1498232303368663e-01, 5.1498232303368663e-01], 
                "tabulate_dof_coordinates": [8.1699999182999994e-01, 6.3033332703000000e-01], 
                "num_sub_elements": 0, 
            },
        },
        "dofmap_0": {
            "needs_mesh_entities_0": 0, 
            "needs_mesh_entities_1": 0, 
            "needs_mesh_entities_2": 1, 
            "global_dimension": 30009, 
            "num_element_dofs": 3, 
            "num_facet_dofs": 0, 
            "num_entity_dofs_0": 0, 
            "num_entity_dofs_1": 0, 
            "num_entity_dofs_2": 3, 
            "tabulate_dofs": [0, 1, 2], 
            "tabulate_facet_dofs_0": [], 
            "tabulate_facet_dofs_1": [], 
            "tabulate_facet_dofs_2": [], 
            "tabulate_entity_dofs_0_0": [], 
            "tabulate_entity_dofs_0_1": [], 
            "tabulate_entity_dofs_0_2": [], 
            "tabulate_entity_dofs_1_0": [], 
            "tabulate_entity_dofs_1_1": [], 
            "tabulate_entity_dofs_1_2": [], 
            "tabulate_entity_dofs_2_0": [0, 1, 2], 
            "num_sub_dofmaps": 0, 
        },
        "dofmap_1": {
            "needs_mesh_entities_0": 0, 
            "needs_mesh_entities_1": 0, 
            "needs_mesh_entities_2": 1, 
            "global_dimension": 30009, 
            "num_element_dofs": 3, 
            "num_facet_dofs": 0, 
            "num_entity_dofs_0": 0, 
            "num_entity_dofs_1": 0, 
            "num_entity_dofs_2": 3, 
            "tabulate_dofs": [0, 1, 2], 
            "tabulate_facet_dofs_0": [], 
            "tabulate_facet_dofs_1": [], 
            "tabulate_facet_dofs_2": [], 
            "tabulate_entity_dofs_0_0": [], 
            "tabulate_entity_dofs_0_1": [], 
            "tabulate_entity_dofs_0_2": [], 
            "tabulate_entity_dofs_1_0": [], 
            "tabulate_entity_dofs_1_1": [], 
            "tabulate_entity_dofs_1_2": [], 
            "tabulate_entity_dofs_2_0": [0, 1, 2], 
            "num_sub_dofmaps": 0, 
        },
        "dofmap_2": {
            "needs_mesh_entities_0": 0, 
            "needs_mesh_entities_1": 0, 
            "needs_mesh_entities_2": 1, 
            "global_dimension": 2, 
            "num_element_dofs": 2, 
            "num_facet_dofs": 0, 
            "num_entity_dofs_0": 0, 
            "num_entity_dofs_1": 0, 
            "num_entity_dofs_2": 2, 
            "tabulate_dofs": [0, 1], 
            "tabulate_facet_dofs_0": [], 
            "tabulate_facet_dofs_1": [], 
            "tabulate_facet_dofs_2": [], 
            "tabulate_entity_dofs_0_0": [], 
            "tabulate_entity_dofs_0_1": [], 
            "tabulate_entity_dofs_0_2": [], 
            "tabulate_entity_dofs_1_0": [], 
            "tabulate_entity_dofs_1_1": [], 
            "tabulate_entity_dofs_1_2": [], 
            "tabulate_entity_dofs_2_0": [0, 1], 
            "num_sub_dofmaps": 2, 
            "dofmap_0": {
                "needs_mesh_entities_0": 0, 
                "needs_mesh_entities_1": 0, 
                "needs_mesh_entities_2": 0, 
                "global_dimension": 1, 
                "num_element_dofs": 1, 
                "num_facet_dofs": 0, 
                "num_entity_dofs_0": 0, 
                "num_entity_dofs_1": 0, 
                "num_entity_dofs_2": 1, 
                "tabulate_dofs": [0], 
                "tabulate_facet_dofs_0": [], 
                "tabulate_facet_dofs_1": [], 
                "tabulate_facet_dofs_2": [], 
                "tabulate_entity_dofs_0_0": [], 
                "tabulate_entity_dofs_0_1": [], 
                "tabulate_entity_dofs_0_2": [], 
                "tabulate_entity_dofs_1_0": [], 
                "tabulate_entity_dofs_1_1": [], 
                "tabulate_entity_dofs_1_2": [], 
                "tabulate_entity_dofs_2_0": [0], 
                "num_sub_dofmaps": 0, 
            },
            "dofmap_1": {
                "needs_mesh_entities_0": 0, 
                "needs_mesh_entities_1": 0, 
                "needs_mesh_entities_2": 0, 
                "global_dimension": 1, 
                "num_element_dofs": 1, 
                "num_facet_dofs": 0, 
                "num_entity_dofs_0": 0, 
                "num_entity_dofs_1": 0, 
                "num_entity_dofs_2": 1, 
                "tabulate_dofs": [0], 
                "tabulate_facet_dofs_0": [], 
                "tabulate_facet_dofs_1": [], 
                "tabulate_facet_dofs_2": [], 
                "tabulate_entity_dofs_0_0": [], 
                "tabulate_entity_dofs_0_1": [], 
                "tabulate_entity_dofs_0_2": [], 
                "tabulate_entity_dofs_1_0": [], 
                "tabulate_entity_dofs_1_1": [], 
                "tabulate_entity_dofs_1_2": [], 
                "tabulate_entity_dofs_2_0": [0], 
                "num_sub_dofmaps": 0, 
            },
        },
        "default_cell_integral": 0, 
        "default_exterior_facet_integral": 1, 
        "exterior_facet_integral": {
            "tabulate_tensor_0": [0.0, 0.0, 0.0, 0.0, 1.4210012006695613e-01, 7.1050061729822978e-02, 0.0, 7.1050061729822978e-02, 1.4210012006695613e-01], 
            "tabulate_tensor_1": [1.4997036624987742e-01, 0.0, 7.4985184915236064e-02, 0.0, 0.0, 0.0, 7.4985184915236064e-02, 0.0, 1.4997036624987742e-01], 
            "tabulate_tensor_2": [1.8209887279221593e-01, 9.1049438569944949e-02, 0.0, 9.1049438569944949e-02, 1.8209887279221593e-01, 0.0, 0.0, 0.0, 0.0], 
        },
        "default_interior_facet_integral": 1, 
        "interior_facet_integral": {
            "tabulate_tensor_0_0": [0.0, -4.7658587409896688e-02, -4.7658587409896688e-02, 0.0, -9.4405048744962819e-02, -9.4405048744962819e-02, -4.7658587409896688e-02, -3.1240318062946658e-02, 4.7658587409896688e-02, 4.7658587409896681e-02, -1.1971654732151087e-01, -4.0817641848667534e-02, -4.7658587409896688e-02, 4.7658587409896688e-02, 1.2655749288274004e-01, 4.7658587409896681e-02, 8.7564103183733658e-02, 1.6646300865657698e-01, 0.0, 4.7658587409896681e-02, 4.7658587409896681e-02, 0.0, 9.4405048744962819e-02, 9.4405048744962819e-02, -9.4405048744962819e-02, 2.2383572745445252e-02, 1.5861416491355665e-01, 9.4405048744962819e-02, -3.0168569925020733e-01, -9.4405048744962833e-02, -9.4405048744962819e-02, 3.0232419881155444e-02, 3.0856312872353314e-01, 9.4405048744962819e-02, -9.4405048744962833e-02, 1.1287560176028169e-01], 
            "tabulate_tensor_0_1": [0.0, -4.7658587409896688e-02, -4.7658587409896688e-02, -9.4405048744962819e-02, 0.0, -9.4405048744962819e-02, -4.7658587409896688e-02, -3.1240318062946658e-02, 4.7658587409896688e-02, -1.1971654732151087e-01, 4.7658587409896688e-02, -4.0817641848667527e-02, -4.7658587409896688e-02, 4.7658587409896688e-02, 1.2655749288274004e-01, 8.7564103183733658e-02, 4.7658587409896688e-02, 1.6646300865657698e-01, -9.4405048744962819e-02, 2.2383572745445252e-02, 1.5861416491355665e-01, -3.0168569925020733e-01, 9.4405048744962819e-02, -9.4405048744962819e-02, 0.0, 4.7658587409896688e-02, 4.7658587409896688e-02, 9.4405048744962819e-02, 0.0, 9.4405048744962819e-02, -9.4405048744962819e-02, 3.0232419881155451e-02, 3.0856312872353314e-01, -9.4405048744962819e-02, 9.4405048744962819e-02, 1.1287560176028172e-01], 
            "tabulate_tensor_0_2": [0.0, -4.7658587409896688e-02, -4.7658587409896688e-02, -9.4405048744962819e-02, -9.4405048744962819e-02, 0.0, -4.7658587409896688e-02, -3.1240318062946658e-02, 4.7658587409896688e-02, -1.1971654732151087e-01, -4.0817641848667527e-02, 4.7658587409896688e-02, -4.7658587409896688e-02, 4.7658587409896688e-02, 1.2655749288274004e-01, 8.7564103183733658e-02, 1.6646300865657698e-01, 4.7658587409896688e-02, -9.4405048744962819e-02, 2.2383572745445252e-02, 1.5861416491355665e-01, -3.0168569925020733e-01, -9.4405048744962819e-02, 9.4405048744962819e-02, -9.4405048744962819e-02, 3.0232419881155451e-02, 3.0856312872353314e-01, -9.4405048744962819e-02, 1.1287560176028172e-01, 9.4405048744962819e-02, 0.0, 4.7658587409896688e-02, 4.7658587409896688e-02, 9.4405048744962819e-02, 9.4405048744962819e-02, 0.0], 
            "tabulate_tensor_1_0": [-1.0059633736334964e-01, -1.6485284950692479e-02, 1.6485284950692486e-02, 1.6485284950692458e-02, -1.6641714661903415e-01, -4.9335524304992023e-02, -1.6485284950692479e-02, 0.0, -1.6485284950692479e-02, 0.0, -5.9563620807246538e-02, -5.9563620807246538e-02, 1.6485284950692486e-02, -1.6485284950692479e-02, 1.3356690726473461e-01, 1.6485284950692458e-02, 9.2413860161546110e-02, 2.0949548247558825e-01, 1.6485284950692458e-02, 0.0, 1.6485284950692458e-02, 0.0, 5.9563620807246490e-02, 5.9563620807246490e-02, -1.6446780369156713e-02, -5.9563620807246538e-02, 1.6739904507678219e-01, 5.9563620807246490e-02, -3.1839462758782677e-01, -5.9563620807246510e-02, 2.5649660610244044e-02, -5.9563620807246538e-02, 3.5946584872546566e-01, 5.9563620807246490e-02, -5.9563620807246510e-02, 1.9926738597333379e-01], 
            "tabulate_tensor_1_1": [-1.0059633736334964e-01, -1.6485284950692479e-02, 1.6485284950692486e-02, -1.6641714661903417e-01, 1.6485284950692465e-02, -4.9335524304992023e-02, -1.6485284950692479e-02, 0.0, -1.6485284950692479e-02, -5.9563620807246538e-02, 0.0, -5.9563620807246538e-02, 1.6485284950692486e-02, -1.6485284950692479e-02, 1.3356690726473461e-01, 9.2413860161546096e-02, 1.6485284950692465e-02, 2.0949548247558825e-01, -1.6446780369156727e-02, -5.9563620807246538e-02, 1.6739904507678216e-01, -3.1839462758782677e-01, 5.9563620807246496e-02, -5.9563620807246510e-02, 1.6485284950692465e-02, 0.0, 1.6485284950692465e-02, 5.9563620807246496e-02, 0.0, 5.9563620807246496e-02, 2.5649660610244044e-02, -5.9563620807246538e-02, 3.5946584872546566e-01, -5.9563620807246510e-02, 5.9563620807246496e-02, 1.9926738597333379e-01], 
            "tabulate_tensor_1_2": [-1.0059633736334964e-01, -1.6485284950692479e-02, 1.6485284950692486e-02, -1.6641714661903417e-01, -4.9335524304992023e-02, 1.6485284950692465e-02, -1.6485284950692479e-02, 0.0, -1.6485284950692479e-02, -5.9563620807246538e-02, -5.9563620807246538e-02, 0.0, 1.6485284950692486e-02, -1.6485284950692479e-02, 1.3356690726473461e-01, 9.2413860161546096e-02, 2.0949548247558825e-01, 1.6485284950692465e-02, -1.6446780369156727e-02, -5.9563620807246538e-02, 1.6739904507678216e-01, -3.1839462758782677e-01, -5.9563620807246510e-02, 5.9563620807246496e-02, 2.5649660610244044e-02, -5.9563620807246538e-02, 3.5946584872546566e-01, -5.9563620807246510e-02, 1.9926738597333379e-01, 5.9563620807246496e-02, 1.6485284950692465e-02, 0.0, 1.6485284950692465e-02, 5.9563620807246496e-02, 5.9563620807246496e-02, 0.0], 
            "tabulate_tensor_2_0": [-1.2214732882874729e-01, -8.1090630980807127e-02, 8.1090630980807141e-02, -8.1090630980807113e-02, -1.0096148830223012e-01, -5.9904790454289897e-02, -8.1090630980807127e-02, -4.0033933132866968e-02, 8.1090630980807141e-02, -8.1090630980807113e-02, -5.2307109713745914e-02, -1.1250411865805702e-02, 8.1090630980807141e-02, 8.1090630980807141e-02, 0.0, 0.0, 1.9330253114884294e-01, 1.9330253114884294e-01, -8.1090630980807113e-02, -8.1090630980807113e-02, 0.0, 0.0, -1.9330253114884291e-01, -1.9330253114884291e-01, 8.1137384489985809e-02, 3.8742328856199035e-02, 1.9330253114884294e-01, -1.9330253114884291e-01, 1.4464815256035859e-01, 1.9330253114884294e-01, 3.1144648115655052e-02, 1.7084846092641021e-01, 1.9330253114884294e-01, -1.9330253114884291e-01, 1.9330253114884294e-01, 2.4195690973732725e-01], 
            "tabulate_tensor_2_1": [-1.2214732882874729e-01, -8.1090630980807127e-02, 8.1090630980807141e-02, -1.0096148830223013e-01, -8.1090630980807113e-02, -5.9904790454289897e-02, -8.1090630980807127e-02, -4.0033933132866968e-02, 8.1090630980807141e-02, -5.2307109713745921e-02, -8.1090630980807113e-02, -1.1250411865805702e-02, 8.1090630980807141e-02, 8.1090630980807141e-02, 0.0, 1.9330253114884294e-01, 0.0, 1.9330253114884294e-01, 8.1137384489985781e-02, 3.8742328856199035e-02, 1.9330253114884294e-01, 1.4464815256035859e-01, -1.9330253114884291e-01, 1.9330253114884294e-01, -8.1090630980807113e-02, -8.1090630980807113e-02, 0.0, -1.9330253114884291e-01, 0.0, -1.9330253114884291e-01, 3.1144648115655052e-02, 1.7084846092641021e-01, 1.9330253114884294e-01, 1.9330253114884294e-01, -1.9330253114884291e-01, 2.4195690973732725e-01], 
            "tabulate_tensor_2_2": [-1.2214732882874729e-01, -8.1090630980807127e-02, 8.1090630980807141e-02, -1.0096148830223013e-01, -5.9904790454289897e-02, -8.1090630980807113e-02, -8.1090630980807127e-02, -4.0033933132866968e-02, 8.1090630980807141e-02, -5.2307109713745921e-02, -1.1250411865805702e-02, -8.1090630980807113e-02, 8.1090630980807141e-02, 8.1090630980807141e-02, 0.0, 1.9330253114884294e-01, 1.9330253114884294e-01, 0.0, 8.1137384489985781e-02, 3.8742328856199035e-02, 1.9330253114884294e-01, 1.4464815256035859e-01, 1.9330253114884294e-01, -1.9330253114884291e-01, 3.1144648115655052e-02, 1.7084846092641021e-01, 1.9330253114884294e-01, 1.9330253114884294e-01, 2.4195690973732725e-01, -1.9330253114884291e-01, -8.1090630980807113e-02, -8.1090630980807113e-02, 0.0, -1.9330253114884291e-01, -1.9330253114884291e-01, 0.0], 
        },
        "default_vertex_integral": 0, 
    },
}
