{
    "form_0": {
        "rank": 2, 
        "num_coefficients": 0, 
        "has_cell_integrals": 1, 
        "has_exterior_facet_integrals": 1, 
        "has_interior_facet_integrals": 1, 
        "has_vertex_integrals": 0, 
        "max_cell_subdomain_id": 2, 
        "max_exterior_facet_subdomain_id": 2, 
        "max_interior_facet_subdomain_id": 2, 
        "max_vertex_subdomain_id": 0, 
        "finite_element_0": {
            "cell_shape": 3, 
            "space_dimension": 4, 
            "value_rank": 0, 
            "evaluate_basis:_0": [6.5138066282759177e-01], 
            "evaluate_basis:_1": [-1.6643198169361997e+00], 
            "evaluate_basis:_2": [1.1330457769257019e-01], 
            "evaluate_basis:_3": [1.8996345630323292e+00], 
            "evaluate_basis_all": [6.5138066282759177e-01, -1.6643198169361997e+00, 1.1330457769257019e-01, 1.8996345630323292e+00, 0.0, 0.0, 0.0, 0.0, 0.0, 0.0, 0.0, 0.0, 0.0, 0.0, 0.0, 0.0, 0.0, 0.0, 0.0, 0.0, 0.0, 0.0, 0.0, 0.0, 0.0, 0.0, 0.0, 0.0, 0.0, 0.0, 0.0, 0.0, 0.0, 0.0, 0.0, 0.0], 
            "evaluate_basis_derivatives_0_0": [6.5138066282759177e-01], 
            "evaluate_basis_derivatives_0_1": [8.1421051112794429e-01, -2.1238951557882415e+00, 4.8733859461364548e-01], 
            "evaluate_basis_derivatives_0_2": [0.0, 0.0, 0.0, 0.0, 0.0, 0.0, 0.0, 0.0, 0.0], 
            "evaluate_basis_derivatives_1_0": [-1.6643198169361997e+00], 
            "evaluate_basis_derivatives_1_1": [9.1338256307038557e-01, 1.1457416830848857e+00, 2.1922630297147019e+00], 
            "evaluate_basis_derivatives_1_2": [0.0, 0.0, 0.0, 0.0, 0.0, 0.0, 0.0, 0.0, 0.0], 
            "evaluate_basis_derivatives_2_0": [1.1330457769257019e-01], 
            "evaluate_basis_derivatives_2_1": [-4.0677945777071893e-02, 1.3365779106852225e+00, -1.5513139558714450e+00], 
            "evaluate_basis_derivatives_2_2": [0.0, 0.0, 0.0, 0.0, 0.0, 0.0, 0.0, 0.0, 0.0], 
            "evaluate_basis_derivatives_3_0": [1.8996345630323292e+00], 
            "evaluate_basis_derivatives_3_1": [-1.6869151224516048e+00, -3.5842450052290431e-01, -1.1282875921693927e+00], 
            "evaluate_basis_derivatives_3_2": [0.0, 0.0, 0.0, 0.0, 0.0, 0.0, 0.0, 0.0, 0.0], 
            "evaluate_basis_derivatives_all_0": [6.5138066282759177e-01, -1.6643198169361997e+00, 1.1330457769257019e-01, 1.8996345630323292e+00], 
            "evaluate_basis_derivatives_all_1": [8.1421051112794429e-01, -2.1238951557882415e+00, 4.8733859461364548e-01, 9.1338256307038557e-01, 1.1457416830848857e+00, 2.1922630297147019e+00, -4.0677945777071893e-02, 1.3365779106852225e+00, -1.5513139558714450e+00, -1.6869151224516048e+00, -3.5842450052290431e-01, -1.1282875921693927e+00], 
            "evaluate_basis_derivatives_all_2": [0.0, 0.0, 0.0, 0.0, 0.0, 0.0, 0.0, 0.0, 0.0, 0.0, 0.0, 0.0, 0.0, 0.0, 0.0, 0.0, 0.0, 0.0, 0.0, 0.0, 0.0, 0.0, 0.0, 0.0, 0.0, 0.0, 0.0, 0.0, 0.0, 0.0, 0.0, 0.0, 0.0, 0.0, 0.0, 0.0], 
            "evaluate_dof_0": 1.4072081100000003e-01, 
            "evaluate_dof_1": 3.5842907099999999e-01, 
            "evaluate_dof_2": 1.4760881100000001e-01, 
            "evaluate_dof_3": 4.6025001000000010e-02, 
            "evaluate_dofs": [1.4072081100000003e-01, 3.5842907099999999e-01, 1.4760881100000001e-01, 4.6025001000000010e-02], 
            "interpolate_vertex_values": [1.4072081100000003e-01, 3.5842907099999999e-01, 1.4760881100000001e-01, 4.6025001000000010e-02], 
            "tabulate_dof_coordinates": [9.0300000000000002e-01, 3.4100000000000003e-01, 4.5700000000000002e-01, 5.6100000000000005e-01, 7.6700000000000002e-01, 8.3299999999999996e-01, 9.8699999999999999e-01, 7.8300000000000003e-01, 1.9100000000000000e-01, 1.2300000000000000e-01, 5.6100000000000005e-01, 6.6700000000000004e-01], 
            "num_sub_elements": 0, 
        },
        "finite_element_1": {
            "cell_shape": 3, 
            "space_dimension": 4, 
            "value_rank": 0, 
            "evaluate_basis:_0": [6.5138066282759177e-01], 
            "evaluate_basis:_1": [-1.6643198169361997e+00], 
            "evaluate_basis:_2": [1.1330457769257019e-01], 
            "evaluate_basis:_3": [1.8996345630323292e+00], 
            "evaluate_basis_all": [6.5138066282759177e-01, -1.6643198169361997e+00, 1.1330457769257019e-01, 1.8996345630323292e+00, 0.0, 0.0, 0.0, 0.0, 0.0, 0.0, 0.0, 0.0, 0.0, 0.0, 0.0, 0.0, 0.0, 0.0, 0.0, 0.0, 0.0, 0.0, 0.0, 0.0, 0.0, 0.0, 0.0, 0.0, 0.0, 0.0, 0.0, 0.0, 0.0, 0.0, 0.0, 0.0], 
            "evaluate_basis_derivatives_0_0": [6.5138066282759177e-01], 
            "evaluate_basis_derivatives_0_1": [8.1421051112794429e-01, -2.1238951557882415e+00, 4.8733859461364548e-01], 
            "evaluate_basis_derivatives_0_2": [0.0, 0.0, 0.0, 0.0, 0.0, 0.0, 0.0, 0.0, 0.0], 
            "evaluate_basis_derivatives_1_0": [-1.6643198169361997e+00], 
            "evaluate_basis_derivatives_1_1": [9.1338256307038557e-01, 1.1457416830848857e+00, 2.1922630297147019e+00], 
            "evaluate_basis_derivatives_1_2": [0.0, 0.0, 0.0, 0.0, 0.0, 0.0, 0.0, 0.0, 0.0], 
            "evaluate_basis_derivatives_2_0": [1.1330457769257019e-01], 
            "evaluate_basis_derivatives_2_1": [-4.0677945777071893e-02, 1.3365779106852225e+00, -1.5513139558714450e+00], 
            "evaluate_basis_derivatives_2_2": [0.0, 0.0, 0.0, 0.0, 0.0, 0.0, 0.0, 0.0, 0.0], 
            "evaluate_basis_derivatives_3_0": [1.8996345630323292e+00], 
            "evaluate_basis_derivatives_3_1": [-1.6869151224516048e+00, -3.5842450052290431e-01, -1.1282875921693927e+00], 
            "evaluate_basis_derivatives_3_2": [0.0, 0.0, 0.0, 0.0, 0.0, 0.0, 0.0, 0.0, 0.0], 
            "evaluate_basis_derivatives_all_0": [6.5138066282759177e-01, -1.6643198169361997e+00, 1.1330457769257019e-01, 1.8996345630323292e+00], 
            "evaluate_basis_derivatives_all_1": [8.1421051112794429e-01, -2.1238951557882415e+00, 4.8733859461364548e-01, 9.1338256307038557e-01, 1.1457416830848857e+00, 2.1922630297147019e+00, -4.0677945777071893e-02, 1.3365779106852225e+00, -1.5513139558714450e+00, -1.6869151224516048e+00, -3.5842450052290431e-01, -1.1282875921693927e+00], 
            "evaluate_basis_derivatives_all_2": [0.0, 0.0, 0.0, 0.0, 0.0, 0.0, 0.0, 0.0, 0.0, 0.0, 0.0, 0.0, 0.0, 0.0, 0.0, 0.0, 0.0, 0.0, 0.0, 0.0, 0.0, 0.0, 0.0, 0.0, 0.0, 0.0, 0.0, 0.0, 0.0, 0.0, 0.0, 0.0, 0.0, 0.0, 0.0, 0.0], 
            "evaluate_dof_0": 1.4072081100000003e-01, 
            "evaluate_dof_1": 3.5842907099999999e-01, 
            "evaluate_dof_2": 1.4760881100000001e-01, 
            "evaluate_dof_3": 4.6025001000000010e-02, 
            "evaluate_dofs": [1.4072081100000003e-01, 3.5842907099999999e-01, 1.4760881100000001e-01, 4.6025001000000010e-02], 
            "interpolate_vertex_values": [1.4072081100000003e-01, 3.5842907099999999e-01, 1.4760881100000001e-01, 4.6025001000000010e-02], 
            "tabulate_dof_coordinates": [9.0300000000000002e-01, 3.4100000000000003e-01, 4.5700000000000002e-01, 5.6100000000000005e-01, 7.6700000000000002e-01, 8.3299999999999996e-01, 9.8699999999999999e-01, 7.8300000000000003e-01, 1.9100000000000000e-01, 1.2300000000000000e-01, 5.6100000000000005e-01, 6.6700000000000004e-01], 
            "num_sub_elements": 0, 
        },
        "dofmap_0": {
            "needs_mesh_entities_0": 1, 
            "needs_mesh_entities_1": 0, 
            "needs_mesh_entities_2": 0, 
            "needs_mesh_entities_3": 0, 
            "global_dimension": 10001, 
            "num_element_dofs": 4, 
            "num_facet_dofs": 3, 
            "num_entity_dofs_0": 1, 
            "num_entity_dofs_1": 0, 
            "num_entity_dofs_2": 0, 
            "num_entity_dofs_3": 0, 
            "tabulate_dofs": [0, 0, 0, 0], 
            "tabulate_facet_dofs_0": [1, 2, 3], 
            "tabulate_facet_dofs_1": [0, 2, 3], 
            "tabulate_facet_dofs_2": [0, 1, 3], 
            "tabulate_facet_dofs_3": [0, 1, 2], 
            "tabulate_entity_dofs_0_0": [0], 
            "tabulate_entity_dofs_0_1": [1], 
            "tabulate_entity_dofs_0_2": [2], 
            "tabulate_entity_dofs_0_3": [3], 
            "tabulate_entity_dofs_1_0": [], 
            "tabulate_entity_dofs_1_1": [], 
            "tabulate_entity_dofs_1_2": [], 
            "tabulate_entity_dofs_1_3": [], 
            "tabulate_entity_dofs_1_4": [], 
            "tabulate_entity_dofs_1_5": [], 
            "tabulate_entity_dofs_2_0": [], 
            "tabulate_entity_dofs_2_1": [], 
            "tabulate_entity_dofs_2_2": [], 
            "tabulate_entity_dofs_2_3": [], 
            "tabulate_entity_dofs_3_0": [], 
            "num_sub_dofmaps": 0, 
        },
        "dofmap_1": {
            "needs_mesh_entities_0": 1, 
            "needs_mesh_entities_1": 0, 
            "needs_mesh_entities_2": 0, 
            "needs_mesh_entities_3": 0, 
            "global_dimension": 10001, 
            "num_element_dofs": 4, 
            "num_facet_dofs": 3, 
            "num_entity_dofs_0": 1, 
            "num_entity_dofs_1": 0, 
            "num_entity_dofs_2": 0, 
            "num_entity_dofs_3": 0, 
            "tabulate_dofs": [0, 0, 0, 0], 
            "tabulate_facet_dofs_0": [1, 2, 3], 
            "tabulate_facet_dofs_1": [0, 2, 3], 
            "tabulate_facet_dofs_2": [0, 1, 3], 
            "tabulate_facet_dofs_3": [0, 1, 2], 
            "tabulate_entity_dofs_0_0": [0], 
            "tabulate_entity_dofs_0_1": [1], 
            "tabulate_entity_dofs_0_2": [2], 
            "tabulate_entity_dofs_0_3": [3], 
            "tabulate_entity_dofs_1_0": [], 
            "tabulate_entity_dofs_1_1": [], 
            "tabulate_entity_dofs_1_2": [], 
            "tabulate_entity_dofs_1_3": [], 
            "tabulate_entity_dofs_1_4": [], 
            "tabulate_entity_dofs_1_5": [], 
            "tabulate_entity_dofs_2_0": [], 
            "tabulate_entity_dofs_2_1": [], 
            "tabulate_entity_dofs_2_2": [], 
            "tabulate_entity_dofs_2_3": [], 
            "tabulate_entity_dofs_3_0": [], 
            "num_sub_dofmaps": 0, 
        },
        "default_cell_integral": 0, 
        "cell_integral_0": {
            "tabulate_tensor": [2.7615300429329544e-03, 1.3807650040992148e-03, 1.3807650040992148e-03, 1.3807650040992148e-03, 1.3807650040992148e-03, 2.7615300429329548e-03, 1.3807650040992146e-03, 1.3807650040992146e-03, 1.3807650040992148e-03, 1.3807650040992146e-03, 2.7615300429329548e-03, 1.3807650040992146e-03, 1.3807650040992148e-03, 1.3807650040992146e-03, 1.3807650040992146e-03, 2.7615300429329544e-03], 
        },
        "cell_integral_1": {
            "tabulate_tensor": [2.7615300429329546e-02, 1.3807650040992148e-02, 1.3807650040992148e-02, 1.3807650040992150e-02, 1.3807650040992148e-02, 2.7615300429329546e-02, 1.3807650040992148e-02, 1.3807650040992148e-02, 1.3807650040992148e-02, 1.3807650040992148e-02, 2.7615300429329546e-02, 1.3807650040992148e-02, 1.3807650040992150e-02, 1.3807650040992148e-02, 1.3807650040992148e-02, 2.7615300429329546e-02], 
        },
        "default_exterior_facet_integral": 0, 
        "exterior_facet_integral_0": {
            "tabulate_tensor_0": [0.0, 0.0, 0.0, 0.0, 0.0, 3.2119835686950475e-02, 1.6059918057607474e-02, 1.6059918057607470e-02, 0.0, 1.6059918057607474e-02, 3.2119835686950475e-02, 1.6059918057607474e-02, 0.0, 1.6059918057607470e-02, 1.6059918057607474e-02, 3.2119835686950475e-02], 
            "tabulate_tensor_1": [3.6408783617204364e-02, 0.0, 1.8204392051327407e-02, 1.8204392051327407e-02, 0.0, 0.0, 0.0, 0.0, 1.8204392051327407e-02, 0.0, 3.6408783617204371e-02, 1.8204392051327407e-02, 1.8204392051327407e-02, 0.0, 1.8204392051327407e-02, 3.6408783617204364e-02], 
            "tabulate_tensor_2": [2.8279302462384713e-02, 1.4139651419721037e-02, 0.0, 1.4139651419721039e-02, 1.4139651419721037e-02, 2.8279302462384713e-02, 0.0, 1.4139651419721037e-02, 0.0, 0.0, 0.0, 0.0, 1.4139651419721039e-02, 1.4139651419721037e-02, 0.0, 2.8279302462384713e-02], 
            "tabulate_tensor_3": [2.8455767220251751e-02, 1.4227883799830986e-02, 1.4227883799830988e-02, 0.0, 1.4227883799830986e-02, 2.8455767220251751e-02, 1.4227883799830986e-02, 0.0, 1.4227883799830988e-02, 1.4227883799830986e-02, 2.8455767220251751e-02, 0.0, 0.0, 0.0, 0.0, 0.0], 
        },
        "exterior_facet_integral_1": {
            "tabulate_tensor_0": [0.0, 0.0, 0.0, 0.0, 0.0, 6.4239671373900950e-02, 3.2119836115214948e-02, 3.2119836115214941e-02, 0.0, 3.2119836115214948e-02, 6.4239671373900950e-02, 3.2119836115214948e-02, 0.0, 3.2119836115214941e-02, 3.2119836115214948e-02, 6.4239671373900950e-02], 
            "tabulate_tensor_1": [7.2817567234408728e-02, 0.0, 3.6408784102654815e-02, 3.6408784102654815e-02, 0.0, 0.0, 0.0, 0.0, 3.6408784102654815e-02, 0.0, 7.2817567234408742e-02, 3.6408784102654815e-02, 3.6408784102654815e-02, 0.0, 3.6408784102654815e-02, 7.2817567234408728e-02], 
            "tabulate_tensor_2": [5.6558604924769426e-02, 2.8279302839442074e-02, 0.0, 2.8279302839442078e-02, 2.8279302839442074e-02, 5.6558604924769426e-02, 0.0, 2.8279302839442074e-02, 0.0, 0.0, 0.0, 0.0, 2.8279302839442078e-02, 2.8279302839442074e-02, 0.0, 5.6558604924769426e-02], 
            "tabulate_tensor_3": [5.6911534440503501e-02, 2.8455767599661973e-02, 2.8455767599661976e-02, 0.0, 2.8455767599661973e-02, 5.6911534440503501e-02, 2.8455767599661973e-02, 0.0, 2.8455767599661976e-02, 2.8455767599661973e-02, 5.6911534440503501e-02, 0.0, 0.0, 0.0, 0.0, 0.0], 
        },
        "default_interior_facet_integral": 0, 
        "interior_facet_integral_0": {
            "tabulate_tensor_0_0": [0.0, 0.0, 0.0, 0.0, 0.0, 0.0, 0.0, 0.0, 0.0, 3.2119835686950475e-02, 1.6059918057607474e-02, 1.6059918057607470e-02, 0.0, 0.0, 0.0, 0.0, 0.0, 1.6059918057607474e-02, 3.2119835686950475e-02, 1.6059918057607474e-02, 0.0, 0.0, 0.0, 0.0, 0.0, 1.6059918057607470e-02, 1.6059918057607474e-02, 3.2119835686950475e-02, 0.0, 0.0, 0.0, 0.0, 0.0, 0.0, 0.0, 0.0, 0.0, 0.0, 0.0, 0.0, 0.0, 0.0, 0.0, 0.0, 0.0, 0.0, 0.0, 0.0, 0.0, 0.0, 0.0, 0.0, 0.0, 0.0, 0.0, 0.0, 0.0, 0.0, 0.0, 0.0, 0.0, 0.0, 0.0, 0.0], 
            "tabulate_tensor_0_1": [0.0, 0.0, 0.0, 0.0, 0.0, 0.0, 0.0, 0.0, 0.0, 3.2119835686950475e-02, 1.6059918057607474e-02, 1.6059918057607470e-02, 0.0, 0.0, 0.0, 0.0, 0.0, 1.6059918057607474e-02, 3.2119835686950475e-02, 1.6059918057607474e-02, 0.0, 0.0, 0.0, 0.0, 0.0, 1.6059918057607470e-02, 1.6059918057607474e-02, 3.2119835686950475e-02, 0.0, 0.0, 0.0, 0.0, 0.0, 0.0, 0.0, 0.0, 0.0, 0.0, 0.0, 0.0, 0.0, 0.0, 0.0, 0.0, 0.0, 0.0, 0.0, 0.0, 0.0, 0.0, 0.0, 0.0, 0.0, 0.0, 0.0, 0.0, 0.0, 0.0, 0.0, 0.0, 0.0, 0.0, 0.0, 0.0], 
            "tabulate_tensor_0_2": [0.0, 0.0, 0.0, 0.0, 0.0, 0.0, 0.0, 0.0, 0.0, 3.2119835686950475e-02, 1.6059918057607474e-02, 1.6059918057607470e-02, 0.0, 0.0, 0.0, 0.0, 0.0, 1.6059918057607474e-02, 3.2119835686950475e-02, 1.6059918057607474e-02, 0.0, 0.0, 0.0, 0.0, 0.0, 1.6059918057607470e-02, 1.6059918057607474e-02, 3.2119835686950475e-02, 0.0, 0.0, 0.0, 0.0, 0.0, 0.0, 0.0, 0.0, 0.0, 0.0, 0.0, 0.0, 0.0, 0.0, 0.0, 0.0, 0.0, 0.0, 0.0, 0.0, 0.0, 0.0, 0.0, 0.0, 0.0, 0.0, 0.0, 0.0, 0.0, 0.0, 0.0, 0.0, 0.0, 0.0, 0.0, 0.0], 
            "tabulate_tensor_0_3": [0.0, 0.0, 0.0, 0.0, 0.0, 0.0, 0.0, 0.0, 0.0, 3.2119835686950475e-02, 1.6059918057607474e-02, 1.6059918057607470e-02, 0.0, 0.0, 0.0, 0.0, 0.0, 1.6059918057607474e-02, 3.2119835686950475e-02, 1.6059918057607474e-02, 0.0, 0.0, 0.0, 0.0, 0.0, 1.6059918057607470e-02, 1.6059918057607474e-02, 3.2119835686950475e-02, 0.0, 0.0, 0.0, 0.0, 0.0, 0.0, 0.0, 0.0, 0.0, 0.0, 0.0, 0.0, 0.0, 0.0, 0.0, 0.0, 0.0, 0.0, 0.0, 0.0, 0.0, 0.0, 0.0, 0.0, 0.0, 0.0, 0.0, 0.0, 0.0, 0.0, 0.0, 0.0, 0.0, 0.0, 0.0, 0.0], 
            "tabulate_tensor_1_0": [3.6408783617204364e-02, 0.0, 1.8204392051327407e-02, 1.8204392051327407e-02, 0.0, 0.0, 0.0, 0.0, 0.0, 0.0, 0.0, 0.0, 0.0, 0.0, 0.0, 0.0, 1.8204392051327407e-02, 0.0, 3.6408783617204371e-02, 1.8204392051327407e-02, 0.0, 0.0, 0.0, 0.0, 1.8204392051327407e-02, 0.0, 1.8204392051327407e-02, 3.6408783617204364e-02, 0.0, 0.0, 0.0, 0.0, 0.0, 0.0, 0.0, 0.0, 0.0, 0.0, 0.0, 0.0, 0.0, 0.0, 0.0, 0.0, 0.0, 0.0, 0.0, 0.0, 0.0, 0.0, 0.0, 0.0, 0.0, 0.0, 0.0, 0.0, 0.0, 0.0, 0.0, 0.0, 0.0, 0.0, 0.0, 0.0], 
            "tabulate_tensor_1_1": [3.6408783617204364e-02, 0.0, 1.8204392051327407e-02, 1.8204392051327407e-02, 0.0, 0.0, 0.0, 0.0, 0.0, 0.0, 0.0, 0.0, 0.0, 0.0, 0.0, 0.0, 1.8204392051327407e-02, 0.0, 3.6408783617204371e-02, 1.8204392051327407e-02, 0.0, 0.0, 0.0, 0.0, 1.8204392051327407e-02, 0.0, 1.8204392051327407e-02, 3.6408783617204364e-02, 0.0, 0.0, 0.0, 0.0, 0.0, 0.0, 0.0, 0.0, 0.0, 0.0, 0.0, 0.0, 0.0, 0.0, 0.0, 0.0, 0.0, 0.0, 0.0, 0.0, 0.0, 0.0, 0.0, 0.0, 0.0, 0.0, 0.0, 0.0, 0.0, 0.0, 0.0, 0.0, 0.0, 0.0, 0.0, 0.0], 
            "tabulate_tensor_1_2": [3.6408783617204364e-02, 0.0, 1.8204392051327407e-02, 1.8204392051327407e-02, 0.0, 0.0, 0.0, 0.0, 0.0, 0.0, 0.0, 0.0, 0.0, 0.0, 0.0, 0.0, 1.8204392051327407e-02, 0.0, 3.6408783617204371e-02, 1.8204392051327407e-02, 0.0, 0.0, 0.0, 0.0, 1.8204392051327407e-02, 0.0, 1.8204392051327407e-02, 3.6408783617204364e-02, 0.0, 0.0, 0.0, 0.0, 0.0, 0.0, 0.0, 0.0, 0.0, 0.0, 0.0, 0.0, 0.0, 0.0, 0.0, 0.0, 0.0, 0.0, 0.0, 0.0, 0.0, 0.0, 0.0, 0.0, 0.0, 0.0, 0.0, 0.0, 0.0, 0.0, 0.0, 0.0, 0.0, 0.0, 0.0, 0.0], 
            "tabulate_tensor_1_3": [3.6408783617204364e-02, 0.0, 1.8204392051327407e-02, 1.8204392051327407e-02, 0.0, 0.0, 0.0, 0.0, 0.0, 0.0, 0.0, 0.0, 0.0, 0.0, 0.0, 0.0, 1.8204392051327407e-02, 0.0, 3.6408783617204371e-02, 1.8204392051327407e-02, 0.0, 0.0, 0.0, 0.0, 1.8204392051327407e-02, 0.0, 1.8204392051327407e-02, 3.6408783617204364e-02, 0.0, 0.0, 0.0, 0.0, 0.0, 0.0, 0.0, 0.0, 0.0, 0.0, 0.0, 0.0, 0.0, 0.0, 0.0, 0.0, 0.0, 0.0, 0.0, 0.0, 0.0, 0.0, 0.0, 0.0, 0.0, 0.0, 0.0, 0.0, 0.0, 0.0, 0.0, 0.0, 0.0, 0.0, 0.0, 0.0], 
            "tabulate_tensor_2_0": [2.8279302462384713e-02, 1.4139651419721037e-02, 0.0, 1.4139651419721039e-02, 0.0, 0.0, 0.0, 0.0, 1.4139651419721037e-02, 2.8279302462384713e-02, 0.0, 1.4139651419721037e-02, 0.0, 0.0, 0.0, 0.0, 0.0, 0.0, 0.0, 0.0, 0.0, 0.0, 0.0, 0.0, 1.4139651419721039e-02, 1.4139651419721037e-02, 0.0, 2.8279302462384713e-02, 0.0, 0.0, 0.0, 0.0, 0.0, 0.0, 0.0, 0.0, 0.0, 0.0, 0.0, 0.0, 0.0, 0.0, 0.0, 0.0, 0.0, 0.0, 0.0, 0.0, 0.0, 0.0, 0.0, 0.0, 0.0, 0.0, 0.0, 0.0, 0.0, 0.0, 0.0, 0.0, 0.0, 0.0, 0.0, 0.0], 
            "tabulate_tensor_2_1": [2.8279302462384713e-02, 1.4139651419721037e-02, 0.0, 1.4139651419721039e-02, 0.0, 0.0, 0.0, 0.0, 1.4139651419721037e-02, 2.8279302462384713e-02, 0.0, 1.4139651419721037e-02, 0.0, 0.0, 0.0, 0.0, 0.0, 0.0, 0.0, 0.0, 0.0, 0.0, 0.0, 0.0, 1.4139651419721039e-02, 1.4139651419721037e-02, 0.0, 2.8279302462384713e-02, 0.0, 0.0, 0.0, 0.0, 0.0, 0.0, 0.0, 0.0, 0.0, 0.0, 0.0, 0.0, 0.0, 0.0, 0.0, 0.0, 0.0, 0.0, 0.0, 0.0, 0.0, 0.0, 0.0, 0.0, 0.0, 0.0, 0.0, 0.0, 0.0, 0.0, 0.0, 0.0, 0.0, 0.0, 0.0, 0.0], 
            "tabulate_tensor_2_2": [2.8279302462384713e-02, 1.4139651419721037e-02, 0.0, 1.4139651419721039e-02, 0.0, 0.0, 0.0, 0.0, 1.4139651419721037e-02, 2.8279302462384713e-02, 0.0, 1.4139651419721037e-02, 0.0, 0.0, 0.0, 0.0, 0.0, 0.0, 0.0, 0.0, 0.0, 0.0, 0.0, 0.0, 1.4139651419721039e-02, 1.4139651419721037e-02, 0.0, 2.8279302462384713e-02, 0.0, 0.0, 0.0, 0.0, 0.0, 0.0, 0.0, 0.0, 0.0, 0.0, 0.0, 0.0, 0.0, 0.0, 0.0, 0.0, 0.0, 0.0, 0.0, 0.0, 0.0, 0.0, 0.0, 0.0, 0.0, 0.0, 0.0, 0.0, 0.0, 0.0, 0.0, 0.0, 0.0, 0.0, 0.0, 0.0], 
            "tabulate_tensor_2_3": [2.8279302462384713e-02, 1.4139651419721037e-02, 0.0, 1.4139651419721039e-02, 0.0, 0.0, 0.0, 0.0, 1.4139651419721037e-02, 2.8279302462384713e-02, 0.0, 1.4139651419721037e-02, 0.0, 0.0, 0.0, 0.0, 0.0, 0.0, 0.0, 0.0, 0.0, 0.0, 0.0, 0.0, 1.4139651419721039e-02, 1.4139651419721037e-02, 0.0, 2.8279302462384713e-02, 0.0, 0.0, 0.0, 0.0, 0.0, 0.0, 0.0, 0.0, 0.0, 0.0, 0.0, 0.0, 0.0, 0.0, 0.0, 0.0, 0.0, 0.0, 0.0, 0.0, 0.0, 0.0, 0.0, 0.0, 0.0, 0.0, 0.0, 0.0, 0.0, 0.0, 0.0, 0.0, 0.0, 0.0, 0.0, 0.0], 
            "tabulate_tensor_3_0": [2.8455767220251751e-02, 1.4227883799830986e-02, 1.4227883799830988e-02, 0.0, 0.0, 0.0, 0.0, 0.0, 1.4227883799830986e-02, 2.8455767220251751e-02, 1.4227883799830986e-02, 0.0, 0.0, 0.0, 0.0, 0.0, 1.4227883799830988e-02, 1.4227883799830986e-02, 2.8455767220251751e-02, 0.0, 0.0, 0.0, 0.0, 0.0, 0.0, 0.0, 0.0, 0.0, 0.0, 0.0, 0.0, 0.0, 0.0, 0.0, 0.0, 0.0, 0.0, 0.0, 0.0, 0.0, 0.0, 0.0, 0.0, 0.0, 0.0, 0.0, 0.0, 0.0, 0.0, 0.0, 0.0, 0.0, 0.0, 0.0, 0.0, 0.0, 0.0, 0.0, 0.0, 0.0, 0.0, 0.0, 0.0, 0.0], 
            "tabulate_tensor_3_1": [2.8455767220251751e-02, 1.4227883799830986e-02, 1.4227883799830988e-02, 0.0, 0.0, 0.0, 0.0, 0.0, 1.4227883799830986e-02, 2.8455767220251751e-02, 1.4227883799830986e-02, 0.0, 0.0, 0.0, 0.0, 0.0, 1.4227883799830988e-02, 1.4227883799830986e-02, 2.8455767220251751e-02, 0.0, 0.0, 0.0, 0.0, 0.0, 0.0, 0.0, 0.0, 0.0, 0.0, 0.0, 0.0, 0.0, 0.0, 0.0, 0.0, 0.0, 0.0, 0.0, 0.0, 0.0, 0.0, 0.0, 0.0, 0.0, 0.0, 0.0, 0.0, 0.0, 0.0, 0.0, 0.0, 0.0, 0.0, 0.0, 0.0, 0.0, 0.0, 0.0, 0.0, 0.0, 0.0, 0.0, 0.0, 0.0], 
            "tabulate_tensor_3_2": [2.8455767220251751e-02, 1.4227883799830986e-02, 1.4227883799830988e-02, 0.0, 0.0, 0.0, 0.0, 0.0, 1.4227883799830986e-02, 2.8455767220251751e-02, 1.4227883799830986e-02, 0.0, 0.0, 0.0, 0.0, 0.0, 1.4227883799830988e-02, 1.4227883799830986e-02, 2.8455767220251751e-02, 0.0, 0.0, 0.0, 0.0, 0.0, 0.0, 0.0, 0.0, 0.0, 0.0, 0.0, 0.0, 0.0, 0.0, 0.0, 0.0, 0.0, 0.0, 0.0, 0.0, 0.0, 0.0, 0.0, 0.0, 0.0, 0.0, 0.0, 0.0, 0.0, 0.0, 0.0, 0.0, 0.0, 0.0, 0.0, 0.0, 0.0, 0.0, 0.0, 0.0, 0.0, 0.0, 0.0, 0.0, 0.0], 
            "tabulate_tensor_3_3": [2.8455767220251751e-02, 1.4227883799830986e-02, 1.4227883799830988e-02, 0.0, 0.0, 0.0, 0.0, 0.0, 1.4227883799830986e-02, 2.8455767220251751e-02, 1.4227883799830986e-02, 0.0, 0.0, 0.0, 0.0, 0.0, 1.4227883799830988e-02, 1.4227883799830986e-02, 2.8455767220251751e-02, 0.0, 0.0, 0.0, 0.0, 0.0, 0.0, 0.0, 0.0, 0.0, 0.0, 0.0, 0.0, 0.0, 0.0, 0.0, 0.0, 0.0, 0.0, 0.0, 0.0, 0.0, 0.0, 0.0, 0.0, 0.0, 0.0, 0.0, 0.0, 0.0, 0.0, 0.0, 0.0, 0.0, 0.0, 0.0, 0.0, 0.0, 0.0, 0.0, 0.0, 0.0, 0.0, 0.0, 0.0, 0.0], 
        },
        "interior_facet_integral_1": {
            "tabulate_tensor_0_0": [0.0, 0.0, 0.0, 0.0, 0.0, 0.0, 0.0, 0.0, 0.0, 1.3811529345388704e-01, 6.9057647647712134e-02, 6.9057647647712134e-02, 0.0, 0.0, 0.0, 0.0, 0.0, 6.9057647647712134e-02, 1.3811529345388704e-01, 6.9057647647712134e-02, 0.0, 0.0, 0.0, 0.0, 0.0, 6.9057647647712134e-02, 6.9057647647712134e-02, 1.3811529345388704e-01, 0.0, 0.0, 0.0, 0.0, 0.0, 0.0, 0.0, 0.0, 0.0, 0.0, 0.0, 0.0, 0.0, 0.0, 0.0, 0.0, 0.0, 0.0, 0.0, 0.0, 0.0, 0.0, 0.0, 0.0, 0.0, 0.0, 0.0, 0.0, 0.0, 0.0, 0.0, 0.0, 0.0, 0.0, 0.0, 0.0], 
            "tabulate_tensor_0_1": [0.0, 0.0, 0.0, 0.0, 0.0, 0.0, 0.0, 0.0, 0.0, 1.3811529345388704e-01, 6.9057647647712134e-02, 6.9057647647712134e-02, 0.0, 0.0, 0.0, 0.0, 0.0, 6.9057647647712134e-02, 1.3811529345388704e-01, 6.9057647647712134e-02, 0.0, 0.0, 0.0, 0.0, 0.0, 6.9057647647712134e-02, 6.9057647647712134e-02, 1.3811529345388704e-01, 0.0, 0.0, 0.0, 0.0, 0.0, 0.0, 0.0, 0.0, 0.0, 0.0, 0.0, 0.0, 0.0, 0.0, 0.0, 0.0, 0.0, 0.0, 0.0, 0.0, 0.0, 0.0, 0.0, 0.0, 0.0, 0.0, 0.0, 0.0, 0.0, 0.0, 0.0, 0.0, 0.0, 0.0, 0.0, 0.0], 
            "tabulate_tensor_0_2": [0.0, 0.0, 0.0, 0.0, 0.0, 0.0, 0.0, 0.0, 0.0, 1.3811529345388704e-01, 6.9057647647712134e-02, 6.9057647647712134e-02, 0.0, 0.0, 0.0, 0.0, 0.0, 6.9057647647712134e-02, 1.3811529345388704e-01, 6.9057647647712134e-02, 0.0, 0.0, 0.0, 0.0, 0.0, 6.9057647647712134e-02, 6.9057647647712134e-02, 1.3811529345388704e-01, 0.0, 0.0, 0.0, 0.0, 0.0, 0.0, 0.0, 0.0, 0.0, 0.0, 0.0, 0.0, 0.0, 0.0, 0.0, 0.0, 0.0, 0.0, 0.0, 0.0, 0.0, 0.0, 0.0, 0.0, 0.0, 0.0, 0.0, 0.0, 0.0, 0.0, 0.0, 0.0, 0.0, 0.0, 0.0, 0.0], 
            "tabulate_tensor_0_3": [0.0, 0.0, 0.0, 0.0, 0.0, 0.0, 0.0, 0.0, 0.0, 1.3811529345388704e-01, 6.9057647647712134e-02, 6.9057647647712134e-02, 0.0, 0.0, 0.0, 0.0, 0.0, 6.9057647647712134e-02, 1.3811529345388704e-01, 6.9057647647712134e-02, 0.0, 0.0, 0.0, 0.0, 0.0, 6.9057647647712134e-02, 6.9057647647712134e-02, 1.3811529345388704e-01, 0.0, 0.0, 0.0, 0.0, 0.0, 0.0, 0.0, 0.0, 0.0, 0.0, 0.0, 0.0, 0.0, 0.0, 0.0, 0.0, 0.0, 0.0, 0.0, 0.0, 0.0, 0.0, 0.0, 0.0, 0.0, 0.0, 0.0, 0.0, 0.0, 0.0, 0.0, 0.0, 0.0, 0.0, 0.0, 0.0], 
            "tabulate_tensor_1_0": [1.5655776955397879e-01, 0.0, 7.8278885820707855e-02, 7.8278885820707841e-02, 0.0, 0.0, 0.0, 0.0, 0.0, 0.0, 0.0, 0.0, 0.0, 0.0, 0.0, 0.0, 7.8278885820707855e-02, 0.0, 1.5655776955397879e-01, 7.8278885820707855e-02, 0.0, 0.0, 0.0, 0.0, 7.8278885820707841e-02, 0.0, 7.8278885820707855e-02, 1.5655776955397879e-01, 0.0, 0.0, 0.0, 0.0, 0.0, 0.0, 0.0, 0.0, 0.0, 0.0, 0.0, 0.0, 0.0, 0.0, 0.0, 0.0, 0.0, 0.0, 0.0, 0.0, 0.0, 0.0, 0.0, 0.0, 0.0, 0.0, 0.0, 0.0, 0.0, 0.0, 0.0, 0.0, 0.0, 0.0, 0.0, 0.0], 
            "tabulate_tensor_1_1": [1.5655776955397879e-01, 0.0, 7.8278885820707855e-02, 7.8278885820707841e-02, 0.0, 0.0, 0.0, 0.0, 0.0, 0.0, 0.0, 0.0, 0.0, 0.0, 0.0, 0.0, 7.8278885820707855e-02, 0.0, 1.5655776955397879e-01, 7.8278885820707855e-02, 0.0, 0.0, 0.0, 0.0, 7.8278885820707841e-02, 0.0, 7.8278885820707855e-02, 1.5655776955397879e-01, 0.0, 0.0, 0.0, 0.0, 0.0, 0.0, 0.0, 0.0, 0.0, 0.0, 0.0, 0.0, 0.0, 0.0, 0.0, 0.0, 0.0, 0.0, 0.0, 0.0, 0.0, 0.0, 0.0, 0.0, 0.0, 0.0, 0.0, 0.0, 0.0, 0.0, 0.0, 0.0, 0.0, 0.0, 0.0, 0.0], 
            "tabulate_tensor_1_2": [1.5655776955397879e-01, 0.0, 7.8278885820707855e-02, 7.8278885820707841e-02, 0.0, 0.0, 0.0, 0.0, 0.0, 0.0, 0.0, 0.0, 0.0, 0.0, 0.0, 0.0, 7.8278885820707855e-02, 0.0, 1.5655776955397879e-01, 7.8278885820707855e-02, 0.0, 0.0, 0.0, 0.0, 7.8278885820707841e-02, 0.0, 7.8278885820707855e-02, 1.5655776955397879e-01, 0.0, 0.0, 0.0, 0.0, 0.0, 0.0, 0.0, 0.0, 0.0, 0.0, 0.0, 0.0, 0.0, 0.0, 0.0, 0.0, 0.0, 0.0, 0.0, 0.0, 0.0, 0.0, 0.0, 0.0, 0.0, 0.0, 0.0, 0.0, 0.0, 0.0, 0.0, 0.0, 0.0, 0.0, 0.0, 0.0], 
            "tabulate_tensor_1_3": [1.5655776955397879e-01, 0.0, 7.8278885820707855e-02, 7.8278885820707841e-02, 0.0, 0.0, 0.0, 0.0, 0.0, 0.0, 0.0, 0.0, 0.0, 0.0, 0.0, 0.0, 7.8278885820707855e-02, 0.0, 1.5655776955397879e-01, 7.8278885820707855e-02, 0.0, 0.0, 0.0, 0.0, 7.8278885820707841e-02, 0.0, 7.8278885820707855e-02, 1.5655776955397879e-01, 0.0, 0.0, 0.0, 0.0, 0.0, 0.0, 0.0, 0.0, 0.0, 0.0, 0.0, 0.0, 0.0, 0.0, 0.0, 0.0, 0.0, 0.0, 0.0, 0.0, 0.0, 0.0, 0.0, 0.0, 0.0, 0.0, 0.0, 0.0, 0.0, 0.0, 0.0, 0.0, 0.0, 0.0, 0.0, 0.0], 
            "tabulate_tensor_2_0": [1.2160100058825428e-01, 6.0800501104800467e-02, 0.0, 6.0800501104800467e-02, 0.0, 0.0, 0.0, 0.0, 6.0800501104800460e-02, 1.2160100058825428e-01, 0.0, 6.0800501104800460e-02, 0.0, 0.0, 0.0, 0.0, 0.0, 0.0, 0.0, 0.0, 0.0, 0.0, 0.0, 0.0, 6.0800501104800467e-02, 6.0800501104800467e-02, 0.0, 1.2160100058825428e-01, 0.0, 0.0, 0.0, 0.0, 0.0, 0.0, 0.0, 0.0, 0.0, 0.0, 0.0, 0.0, 0.0, 0.0, 0.0, 0.0, 0.0, 0.0, 0.0, 0.0, 0.0, 0.0, 0.0, 0.0, 0.0, 0.0, 0.0, 0.0, 0.0, 0.0, 0.0, 0.0, 0.0, 0.0, 0.0, 0.0], 
            "tabulate_tensor_2_1": [1.2160100058825428e-01, 6.0800501104800467e-02, 0.0, 6.0800501104800467e-02, 0.0, 0.0, 0.0, 0.0, 6.0800501104800460e-02, 1.2160100058825428e-01, 0.0, 6.0800501104800460e-02, 0.0, 0.0, 0.0, 0.0, 0.0, 0.0, 0.0, 0.0, 0.0, 0.0, 0.0, 0.0, 6.0800501104800467e-02, 6.0800501104800467e-02, 0.0, 1.2160100058825428e-01, 0.0, 0.0, 0.0, 0.0, 0.0, 0.0, 0.0, 0.0, 0.0, 0.0, 0.0, 0.0, 0.0, 0.0, 0.0, 0.0, 0.0, 0.0, 0.0, 0.0, 0.0, 0.0, 0.0, 0.0, 0.0, 0.0, 0.0, 0.0, 0.0, 0.0, 0.0, 0.0, 0.0, 0.0, 0.0, 0.0], 
            "tabulate_tensor_2_2": [1.2160100058825428e-01, 6.0800501104800467e-02, 0.0, 6.0800501104800467e-02, 0.0, 0.0, 0.0, 0.0, 6.0800501104800460e-02, 1.2160100058825428e-01, 0.0, 6.0800501104800460e-02, 0.0, 0.0, 0.0, 0.0, 0.0, 0.0, 0.0, 0.0, 0.0, 0.0, 0.0, 0.0, 6.0800501104800467e-02, 6.0800501104800467e-02, 0.0, 1.2160100058825428e-01, 0.0, 0.0, 0.0, 0.0, 0.0, 0.0, 0.0, 0.0, 0.0, 0.0, 0.0, 0.0, 0.0, 0.0, 0.0, 0.0, 0.0, 0.0, 0.0, 0.0, 0.0, 0.0, 0.0, 0.0, 0.0, 0.0, 0.0, 0.0, 0.0, 0.0, 0.0, 0.0, 0.0, 0.0, 0.0, 0.0], 
            "tabulate_tensor_2_3": [1.2160100058825428e-01, 6.0800501104800467e-02, 0.0, 6.0800501104800467e-02, 0.0, 0.0, 0.0, 0.0, 6.0800501104800460e-02, 1.2160100058825428e-01, 0.0, 6.0800501104800460e-02, 0.0, 0.0, 0.0, 0.0, 0.0, 0.0, 0.0, 0.0, 0.0, 0.0, 0.0, 0.0, 6.0800501104800467e-02, 6.0800501104800467e-02, 0.0, 1.2160100058825428e-01, 0.0, 0.0, 0.0, 0.0, 0.0, 0.0, 0.0, 0.0, 0.0, 0.0, 0.0, 0.0, 0.0, 0.0, 0.0, 0.0, 0.0, 0.0, 0.0, 0.0, 0.0, 0.0, 0.0, 0.0, 0.0, 0.0, 0.0, 0.0, 0.0, 0.0, 0.0, 0.0, 0.0, 0.0, 0.0, 0.0], 
            "tabulate_tensor_3_0": [1.2235979904708252e-01, 6.1179900339273244e-02, 6.1179900339273251e-02, 0.0, 0.0, 0.0, 0.0, 0.0, 6.1179900339273244e-02, 1.2235979904708254e-01, 6.1179900339273244e-02, 0.0, 0.0, 0.0, 0.0, 0.0, 6.1179900339273251e-02, 6.1179900339273244e-02, 1.2235979904708252e-01, 0.0, 0.0, 0.0, 0.0, 0.0, 0.0, 0.0, 0.0, 0.0, 0.0, 0.0, 0.0, 0.0, 0.0, 0.0, 0.0, 0.0, 0.0, 0.0, 0.0, 0.0, 0.0, 0.0, 0.0, 0.0, 0.0, 0.0, 0.0, 0.0, 0.0, 0.0, 0.0, 0.0, 0.0, 0.0, 0.0, 0.0, 0.0, 0.0, 0.0, 0.0, 0.0, 0.0, 0.0, 0.0], 
            "tabulate_tensor_3_1": [1.2235979904708252e-01, 6.1179900339273244e-02, 6.1179900339273251e-02, 0.0, 0.0, 0.0, 0.0, 0.0, 6.1179900339273244e-02, 1.2235979904708254e-01, 6.1179900339273244e-02, 0.0, 0.0, 0.0, 0.0, 0.0, 6.1179900339273251e-02, 6.1179900339273244e-02, 1.2235979904708252e-01, 0.0, 0.0, 0.0, 0.0, 0.0, 0.0, 0.0, 0.0, 0.0, 0.0, 0.0, 0.0, 0.0, 0.0, 0.0, 0.0, 0.0, 0.0, 0.0, 0.0, 0.0, 0.0, 0.0, 0.0, 0.0, 0.0, 0.0, 0.0, 0.0, 0.0, 0.0, 0.0, 0.0, 0.0, 0.0, 0.0, 0.0, 0.0, 0.0, 0.0, 0.0, 0.0, 0.0, 0.0, 0.0], 
            "tabulate_tensor_3_2": [1.2235979904708252e-01, 6.1179900339273244e-02, 6.1179900339273251e-02, 0.0, 0.0, 0.0, 0.0, 0.0, 6.1179900339273244e-02, 1.2235979904708254e-01, 6.1179900339273244e-02, 0.0, 0.0, 0.0, 0.0, 0.0, 6.1179900339273251e-02, 6.1179900339273244e-02, 1.2235979904708252e-01, 0.0, 0.0, 0.0, 0.0, 0.0, 0.0, 0.0, 0.0, 0.0, 0.0, 0.0, 0.0, 0.0, 0.0, 0.0, 0.0, 0.0, 0.0, 0.0, 0.0, 0.0, 0.0, 0.0, 0.0, 0.0, 0.0, 0.0, 0.0, 0.0, 0.0, 0.0, 0.0, 0.0, 0.0, 0.0, 0.0, 0.0, 0.0, 0.0, 0.0, 0.0, 0.0, 0.0, 0.0, 0.0], 
            "tabulate_tensor_3_3": [1.2235979904708252e-01, 6.1179900339273244e-02, 6.1179900339273251e-02, 0.0, 0.0, 0.0, 0.0, 0.0, 6.1179900339273244e-02, 1.2235979904708254e-01, 6.1179900339273244e-02, 0.0, 0.0, 0.0, 0.0, 0.0, 6.1179900339273251e-02, 6.1179900339273244e-02, 1.2235979904708252e-01, 0.0, 0.0, 0.0, 0.0, 0.0, 0.0, 0.0, 0.0, 0.0, 0.0, 0.0, 0.0, 0.0, 0.0, 0.0, 0.0, 0.0, 0.0, 0.0, 0.0, 0.0, 0.0, 0.0, 0.0, 0.0, 0.0, 0.0, 0.0, 0.0, 0.0, 0.0, 0.0, 0.0, 0.0, 0.0, 0.0, 0.0, 0.0, 0.0, 0.0, 0.0, 0.0, 0.0, 0.0, 0.0], 
        },
        "default_vertex_integral": 0, 
    },
}
